day2/out/mips.vcd
$date
	Mon Jul  4 16:01:07 2022
$end
$version
	Icarus Verilog
$end
$timescale
	1ns
$end
$scope module sim $end
$var wire 32 ! alu_q4 [31:0] $end
$var wire 5 " amt [4:0] $end
$var wire 1 # ctrl_hzd $end
$var wire 1 $ data_hzd $end
$var wire 5 % dst [4:0] $end
$var wire 5 & dst2 [4:0] $end
$var wire 5 ' dst3 [4:0] $end
$var wire 5 ( dst4 [4:0] $end
$var wire 1 ) en_dly $end
$var wire 1 * en_fwd $end
$var wire 1 + en_hzd $end
$var wire 6 , fn [5:0] $end
$var wire 32 - fwd_alu_a [31:0] $end
$var wire 32 . fwd_alu_b [31:0] $end
$var wire 32 / fwd_reg_a [31:0] $end
$var wire 32 0 fwd_reg_b [31:0] $end
$var wire 32 1 imm_val [31:0] $end
$var wire 32 2 imm_val2 [31:0] $end
$var wire 32 3 inst [31:0] $end
$var wire 6 4 op [5:0] $end
$var wire 32 5 pc1 [31:0] $end
$var wire 32 6 pc2 [31:0] $end
$var wire 32 7 pc_din [31:0] $end
$var wire 32 8 ram_dout [31:0] $end
$var wire 32 9 ram_dout4 [31:0] $end
$var wire 32 : reg_a [31:0] $end
$var wire 32 ; reg_a2 [31:0] $end
$var wire 32 < reg_b [31:0] $end
$var wire 32 = reg_b2 [31:0] $end
$var wire 5 > src_a [4:0] $end
$var wire 5 ? src_b [4:0] $end
$var wire 32 @ reg_din [31:0] $end
$var wire 32 A ram_din3 [31:0] $end
$var wire 32 B pc0 [31:0] $end
$var wire 32 C inst1 [31:0] $end
$var wire 1 D halt $end
$var wire 1 E fwd_sel $end
$var wire 32 F alu_q3 [31:0] $end
$var wire 32 G alu_b [31:0] $end
$var wire 32 H alu_a [31:0] $end
$var reg 1 I clk $end
$var reg 20 J cnt [19:0] $end
$var reg 1 K halt2 $end
$var reg 1 L halt3 $end
$var reg 1 M halt4 $end
$var reg 1 N rst $end
$scope module mips $end
$var wire 1 O addsub_sel $end
$var wire 32 P adrs [31:0] $end
$var wire 32 Q alu_a [31:0] $end
$var wire 1 R alu_hzd $end
$var wire 1 S brn_hzd $end
$var wire 1 T brn_taken $end
$var wire 1 I clk $end
$var wire 1 U ctrl_hzd $end
$var wire 32 V dand [31:0] $end
$var wire 1 W data_hzd $end
$var wire 32 X din [31:0] $end
$var wire 32 Y dnor [31:0] $end
$var wire 32 Z dor [31:0] $end
$var wire 32 [ dout [31:0] $end
$var wire 32 \ dpc [31:0] $end
$var wire 32 ] dxor [31:0] $end
$var wire 1 ) en_dly $end
$var wire 1 * en_fwd $end
$var wire 1 + en_hzd $end
$var wire 1 ^ ex_mem $end
$var wire 1 _ ex_mem_a $end
$var wire 1 ` ex_mem_b $end
$var wire 1 a fwd_id_sel_a $end
$var wire 1 b fwd_id_sel_b $end
$var wire 1 D halt $end
$var wire 1 c i_add $end
$var wire 1 d i_comp $end
$var wire 1 e i_jr $end
$var wire 1 f i_logic $end
$var wire 1 g i_shift $end
$var wire 1 h i_sub $end
$var wire 1 i i_syscall $end
$var wire 1 j id_ex $end
$var wire 1 k id_ex_a $end
$var wire 1 l id_ex_b $end
$var wire 1 m ram_hzd $end
$var wire 1 n ram_rd $end
$var wire 1 o ram_wr $end
$var wire 1 p rd $end
$var wire 1 q reg_wr $end
$var wire 1 N rst $end
$var wire 1 r src_sel_b $end
$var wire 1 s wr $end
$var wire 32 t xor_nor [31:0] $end
$var wire 5 u src_b [4:0] $end
$var wire 5 v src_a [4:0] $end
$var wire 32 w sr3 [31:0] $end
$var wire 32 x sr2 [31:0] $end
$var wire 32 y sr1 [31:0] $end
$var wire 32 z sr0 [31:0] $end
$var wire 32 { sl3 [31:0] $end
$var wire 32 | sl2 [31:0] $end
$var wire 32 } sl1 [31:0] $end
$var wire 32 ~ sl0 [31:0] $end
$var wire 1 !" si $end
$var wire 1 "" sgn_b $end
$var wire 1 #" sgn_a $end
$var wire 32 $" rom_data [31:0] $end
$var wire 1 %" rom_cs $end
$var wire 32 &" reg_din [31:0] $end
$var wire 32 '" reg_b [31:0] $end
$var wire 32 (" reg_a [31:0] $end
$var wire 32 )" ram_dout [31:0] $end
$var wire 1 *" ram_cs $end
$var wire 2 +" pc_sel [1:0] $end
$var wire 32 ," pc_reg [31:0] $end
$var wire 32 -" pc_next [31:0] $end
$var wire 32 ." pc_jump [31:0] $end
$var wire 32 /" pc_din1 [31:0] $end
$var wire 32 0" pc_din0 [31:0] $end
$var wire 32 1" pc_din [31:0] $end
$var wire 32 2" pc_brn [31:0] $end
$var wire 2 3" op_sel [1:0] $end
$var wire 6 4" op [5:0] $end
$var wire 32 5" inst [31:0] $end
$var wire 32 6" imm_val [31:0] $end
$var wire 1 7" i_sw $end
$var wire 1 8" i_rfmt $end
$var wire 1 9" i_lw $end
$var wire 1 :" i_lui $end
$var wire 1 ;" i_jal $end
$var wire 1 <" i_j $end
$var wire 1 =" i_brn $end
$var wire 32 >" fwd_reg_b [31:0] $end
$var wire 32 ?" fwd_reg_a [31:0] $end
$var wire 2 @" fwd_ex_sel_b [1:0] $end
$var wire 2 A" fwd_ex_sel_a [1:0] $end
$var wire 32 B" fwd_alu_b [31:0] $end
$var wire 32 C" fwd_alu_a [31:0] $end
$var wire 6 D" fn [5:0] $end
$var wire 33 E" dsub [32:0] $end
$var wire 5 F" dst [4:0] $end
$var wire 32 G" dsr [31:0] $end
$var wire 32 H" dslt [31:0] $end
$var wire 32 I" dsl [31:0] $end
$var wire 32 J" dshift [31:0] $end
$var wire 32 K" dlui [31:0] $end
$var wire 32 L" dlogic [31:0] $end
$var wire 32 M" daddsub [31:0] $end
$var wire 33 N" dadd [32:0] $end
$var wire 32 O" and_or [31:0] $end
$var wire 5 P" amt [4:0] $end
$var wire 3 Q" alu_sel [2:0] $end
$var wire 32 R" alu_b [31:0] $end
$var reg 32 S" alu_q3 [31:0] $end
$var reg 32 T" alu_q4 [31:0] $end
$var reg 3 U" alu_sel2 [2:0] $end
$var reg 5 V" dst2 [4:0] $end
$var reg 5 W" dst3 [4:0] $end
$var reg 5 X" dst4 [4:0] $end
$var reg 2 Y" fwd_ex_sel_a2 [1:0] $end
$var reg 2 Z" fwd_ex_sel_b2 [1:0] $end
$var reg 32 [" imm_val2 [31:0] $end
$var reg 32 \" inst1 [31:0] $end
$var reg 1 ]" nop1 $end
$var reg 2 ^" op_sel2 [1:0] $end
$var reg 32 _" pc0 [31:0] $end
$var reg 32 `" pc1 [31:0] $end
$var reg 32 a" pc2 [31:0] $end
$var reg 32 b" ram_din3 [31:0] $end
$var reg 32 c" ram_dout4 [31:0] $end
$var reg 1 d" ram_rd2 $end
$var reg 1 e" ram_rd3 $end
$var reg 1 f" ram_rd4 $end
$var reg 1 g" ram_wr2 $end
$var reg 1 h" ram_wr3 $end
$var reg 32 i" reg_a2 [31:0] $end
$var reg 32 j" reg_b2 [31:0] $end
$var reg 1 k" reg_wr2 $end
$var reg 1 l" reg_wr3 $end
$var reg 1 m" reg_wr4 $end
$var reg 1 n" src_sel_b2 $end
$scope module rom $end
$var wire 9 o" adrs [8:0] $end
$var reg 32 p" dout [31:0] $end
$upscope $end
$upscope $end
$upscope $end
$enddefinitions $end
#0
$dumpvars
bx p"
bx o"
xn"
xm"
xl"
xk"
bx j"
bx i"
xh"
xg"
xf"
xe"
xd"
bx c"
bx b"
bx a"
bx `"
bx _"
bx ^"
0]"
bx \"
bx ["
b0 Z"
b0 Y"
bx X"
bx W"
bx V"
bx U"
bx T"
b0 S"
bx R"
bx Q"
bx P"
bx O"
bx N"
bx M"
bx L"
bx0000000000000000 K"
bx J"
bx I"
b0x H"
bx G"
bx F"
bx E"
bx D"
bx C"
bx B"
b0 A"
b0 @"
bx ?"
bx >"
x="
x<"
x;"
x:"
x9"
x8"
x7"
bx 6"
bx 5"
bx 4"
bx 3"
bx 2"
bx 1"
bx 0"
bx /"
bx00 ."
bx -"
bx ,"
bx +"
0*"
bx )"
bx ("
bx '"
bx &"
x%"
bx $"
x#"
x""
x!"
bx ~
bx }
bx |
bx {
bx z
bx y
bx x
bx w
bx v
bx u
bx t
xs
xr
xq
xp
xo
xn
xm
xl
xk
xj
xi
xh
xg
xf
xe
xd
xc
0b
0a
x`
x_
x^
bx ]
bx \
bx [
bx Z
bx Y
b0 X
0W
bx V
xU
xT
xS
xR
bx Q
b0 P
xO
1N
xM
xL
xK
bx J
1I
bx H
bx G
b0 F
0E
xD
bx C
bx B
bx A
bx @
bx ?
bx >
bx =
bx <
bx ;
bx :
bx 9
bx 8
bx 7
bx 6
bx 5
bx 4
bx 3
bx 2
bx 1
bx 0
bx /
bx .
bx -
bx ,
0+
0*
0)
bx (
bx '
bx &
bx %
0$
x#
bx "
bx !
$end
#10
0I
#13
b100000000100000000000000000101 3
b100000000100000000000000000101 5"
b100000000100000000000000000101 $"
b100000000100000000000000000101 p"
0#
0U
1q
b10000000000000000000100 7
b10000000000000000000100 1"
0R
b101 Q"
b0 +"
1g
0S
b0 /"
0m
b0 0
b0 >"
0f
0T
0c
0d
b0 ,"
b0 /
b0 ?"
0j
0^
b0 <
b0 '"
0`
0l
b0 3"
0h
b0 %
b0 F"
0="
0e
0D
0i
b0 :
b0 ("
0k
0_
b0 ?
b0 u
b10000000000000000000000 2"
1r
18"
0<"
0;"
0:"
0n
09"
0o
07"
b0 4
b0 4"
b0 ,
b0 D"
b0 >
b0 v
b0 1
b0 6"
1%"
b0 o"
b10000000000000000000100 0"
b0 ."
0m"
b0 '
b0 W"
0l"
0s
0h"
b0 &
b0 V"
0k"
0g"
1]"
b0 C
b0 \"
b10000000000000000000100 -"
b10000000000000000000000 B
b10000000000000000000000 _"
0N
#20
b0 J"
b0 I"
b0 G"
b0 M"
b0 {
b0 w
b0 H"
b0 |
b0 x
b0 N"
b0 E"
0""
b0 t
b11111111111111111111111111111111 Y
b0 L"
1O
b0 }
b0 y
b0 ]
b0 Z
b0 O"
0#"
b0 ~
b0 z
b0 G
b0 R"
b0 V
0!"
b0 .
b0 B"
b0 H
b0 Q
b0 -
b0 C"
b0 @
b0 &"
b0 K"
b0 "
b0 P"
0M
0L
0K
b0 J
b0 (
b0 X"
0f"
b0 !
b0 T"
1n"
0d"
b0 ^"
b101 U"
b0 2
b0 ["
b0 =
b0 j"
b0 ;
b0 i"
b10000000000000000000100 5
b10000000000000000000100 `"
1I
#30
0I
#40
b10000000000000000000100 \
b10000000000000000000100 6
b10000000000000000000100 a"
0p
0e"
b0 [
b0 A
b0 b"
1I
#50
0I
#53
1N
#60
b100000000100010000000000000011 3
b100000000100010000000000000011 5"
b100000000100010000000000000011 $"
b100000000100010000000000000011 p"
b1 Q"
1q
b0 0
b0 >"
b10000 %
b10000 F"
1c
b0 <
b0 '"
b10000000000000000001000 7
b10000000000000000001000 1"
0g
b0 ?
b0 u
b1 o"
b10000000000000000001000 0"
0r
08"
b1000 4
b1000 4"
b101 ,
b101 D"
b101 1
b101 6"
b10000000000000000010100 ."
b10000000000000000001000 -"
b10000000000000000011000 2"
b10000000000000000000100 B
b10000000000000000000100 _"
b100000000100000000000000000101 C
b100000000100000000000000000101 \"
0]"
b1 J
1I
#70
0I
#80
b100000000100100000000000010000 3
b100000000100100000000000010000 5"
b100000000100100000000000010000 $"
b100000000100100000000000010000 p"
b101 J"
b101 I"
b101 G"
b101 {
b101 w
b10001 %
b10001 F"
b101 |
b101 x
b101 }
b101 y
b101 M"
b101 t
b11111111111111111111111111111010 Y
b10000000000000000001100 7
b10000000000000000001100 1"
b101 ~
b101 z
b1 H"
b101 ]
b101 Z
b11 ,
b11 D"
b11 1
b11 6"
b10001000000000000001100 ."
b10 o"
b10000000000000000001100 0"
b101 N"
b111111111111111111111111111111011 E"
b101 G
b101 R"
b1010000000000000000 K"
b10000 &
b10000 V"
1k"
b100000000100010000000000000011 C
b100000000100010000000000000011 \"
b10000000000000000001100 -"
b10000000000000000010100 2"
b10000000000000000001000 B
b10000000000000000001000 _"
b10000000000000000001000 5
b10000000000000000001000 `"
0n"
b1 U"
b101 2
b101 ["
b10 J
1I
#90
0I
#100
b100000000100110000000000000010 3
b100000000100110000000000000010 5"
b100000000100110000000000000010 $"
b100000000100110000000000000010 p"
b11 J"
b11 I"
b11 G"
b11 {
b11 w
b10010 %
b10010 F"
b11 |
b11 x
b11 }
b11 y
b11 M"
b11 t
b11111111111111111111111111111100 Y
b10000000000000000010000 7
b10000000000000000010000 1"
b11 ~
b11 z
b11 ]
b11 Z
b11 o"
b10000000000000000010000 0"
b10000 ,
b10000 D"
b10000 1
b10000 6"
b10010000000000001000000 ."
b11 N"
b111111111111111111111111111111101 E"
b11 G
b11 R"
b110000000000000000 K"
b10000000000000000010000 -"
b10000000000000001001100 2"
b10000000000000000001100 B
b10000000000000000001100 _"
b100000000100100000000000010000 C
b100000000100100000000000010000 \"
b10001 &
b10001 V"
b10000 '
b10000 W"
1l"
b11 J
b101 P
b101 F
b101 S"
b11 2
b11 ["
b10000000000000000001000 \
b10000000000000000001000 6
b10000000000000000001000 a"
b10000000000000000001100 5
b10000000000000000001100 `"
1I
#110
0I
#120
b10000100010100000000100000 3
b10000100010100000000100000 5"
b10000100010100000000100000 $"
b10000100010100000000100000 p"
b10000 J"
b10000 I"
b10000 G"
b10000 {
b10000 w
b10011 %
b10011 F"
b10000 |
b10000 x
b10000 }
b10000 y
b10000 M"
b10000 t
b11111111111111111111111111101111 Y
b10000000000000000010100 7
b10000000000000000010100 1"
b10000 ~
b10000 z
b10000 ]
b10000 Z
b10 ,
b10 D"
b10 1
b10 6"
b10011000000000000001000 ."
b100 o"
b10000000000000000010100 0"
b10000 N"
b111111111111111111111111111110000 E"
b10000 G
b10000 R"
b100000000000000000000 K"
b101 @
b101 &"
1m"
b10001 '
b10001 W"
b10010 &
b10010 V"
b100000000100110000000000000010 C
b100000000100110000000000000010 \"
b10000000000000000010100 -"
b10000000000000000011000 2"
b10000000000000000010000 B
b10000000000000000010000 _"
b10000000000000000010000 5
b10000000000000000010000 `"
b10000 2
b10000 ["
b10000000000000000001100 \
b10000000000000000001100 6
b10000000000000000001100 a"
b11 P
b11 F
b11 S"
b10000 (
b10000 X"
b101 !
b101 T"
b100 J
1I
#130
0I
#140
b10000100010100100000100010 3
b10000100010100100000100010 5"
b10000100010100100000100010 $"
b10000100010100100000100010 p"
b10 J"
bx 0
bx >"
b10 I"
b10 G"
bx <
bx '"
b10 {
b10 w
b10001 ?
b10001 u
b1 Q"
b101 /"
b10 |
b10 x
b1000 %
b1000 F"
b101 ,"
b101 /
b101 ?"
b10 }
b10 y
b10 M"
b10 t
b11111111111111111111111111111101 Y
b10000000000000000011000 7
b10000000000000000011000 1"
0g
b101 :
b101 ("
b10 ~
b10 z
b10 ]
b10 Z
b101 o"
b10000000000000000011000 0"
1r
18"
b0 4
b0 4"
b100000 ,
b100000 D"
b10000 >
b10000 v
b100000000100000 1
b100000000100000 6"
b1000010001010000000010000000 ."
b11 @
b11 &"
b10 N"
b111111111111111111111111111111110 E"
b10 G
b10 R"
b100000000000000000 K"
b10000000000000000011000 -"
b10000010000000010010100 2"
b10000000000000000010100 B
b10000000000000000010100 _"
b10000100010100000000100000 C
b10000100010100000000100000 \"
b10011 &
b10011 V"
b10010 '
b10010 W"
b101 J
b10001 (
b10001 X"
b11 !
b11 T"
b10000 P
b10000 F
b10000 S"
b10 2
b10 ["
b10000000000000000010000 \
b10000000000000000010000 6
b10000000000000000010000 a"
b10000000000000000010100 5
b10000000000000000010100 `"
1I
#150
b11 0
b11 >"
b11 <
b11 '"
0I
#160
b10000100010101000000100100 3
b10000100010101000000100100 5"
b10000100010101000000100100 $"
b10000100010101000000100100 p"
b11 J"
b11 I"
b11 G"
b1 L"
b11 {
b11 w
b1 O"
0c
b11 |
b11 x
b1 V
1h
b10 3"
b1001 %
b1001 F"
b11 }
b11 y
b1000 M"
b110 t
b11111111111111111111111111111000 Y
b10000000000000000011100 7
b10000000000000000011100 1"
b11 ~
b11 z
b0 H"
b110 ]
b111 Z
b11 .
b11 B"
b101 H
b101 Q
b101 -
b101 C"
b100010 ,
b100010 D"
b100100000100010 1
b100100000100010 6"
b1000010001010010000010001000 ."
b110 o"
b10000000000000000011100 0"
b1000 N"
b10 E"
b11 G
b11 R"
b1000000001000000000000000000000 K"
b10000 @
b10000 &"
b10011 '
b10011 W"
b1000 &
b1000 V"
b10000100010100100000100010 C
b10000100010100100000100010 \"
b10000000000000000011100 -"
b10000010010000010100000 2"
b10000000000000000011000 B
b10000000000000000011000 _"
b10000000000000000011000 5
b10000000000000000011000 `"
1n"
b100000000100000 2
b100000000100000 ["
b11 =
b11 j"
b101 ;
b101 i"
b10000000000000000010100 \
b10000000000000000010100 6
b10000000000000000010100 a"
b10 P
b10 F
b10 S"
b10010 (
b10010 X"
b10000 !
b10000 T"
b110 J
1I
#170
0I
#180
b10000100010101100000100101 3
b10000100010101100000100101 5"
b10000100010101100000100101 $"
b10000100010101100000100101 p"
b100 Q"
b10 M"
1f
0O
0h
b0 3"
b1010 %
b1010 F"
b10000000000000000100000 7
b10000000000000000100000 1"
b110 L"
b111 o"
b10000000000000000100000 0"
b100100 ,
b100100 D"
b101000000100100 1
b101000000100100 6"
b1000010001010100000010010000 ."
b10 @
b10 &"
b1001000001000100000000000000000 K"
b10000000000000000100000 -"
b10000010100000010101100 2"
b10000000000000000011100 B
b10000000000000000011100 _"
b10000100010101000000100100 C
b10000100010101000000100100 \"
b1001 &
b1001 V"
b1000 '
b1000 W"
b111 J
b10011 (
b10011 X"
b10 !
b10 T"
b11 [
b11 A
b11 b"
b1000 P
b1000 F
b1000 S"
b10 ^"
b100100000100010 2
b100100000100010 ["
b10000000000000000011000 \
b10000000000000000011000 6
b10000000000000000011000 a"
b10000000000000000011100 5
b10000000000000000011100 `"
1I
#190
0I
#200
b10000100010110000000100110 3
b10000100010110000000100110 5"
b10000100010110000000100110 $"
b10000100010110000000100110 p"
b1000 M"
1O
b1 3"
b1011 %
b1011 F"
b10000000000000000100100 7
b10000000000000000100100 1"
b1 L"
b100101 ,
b100101 D"
b101100000100101 1
b101100000100101 6"
b1000010001010110000010010100 ."
b1000 o"
b10000000000000000100100 0"
b1010000001001000000000000000000 K"
b1000 @
b1000 &"
b1001 '
b1001 W"
b1010 &
b1010 V"
b10000100010101100000100101 C
b10000100010101100000100101 \"
b10000000000000000100100 -"
b10000010110000010110100 2"
b10000000000000000100000 B
b10000000000000000100000 _"
b10000000000000000100000 5
b10000000000000000100000 `"
b0 ^"
b100 U"
b101000000100100 2
b101000000100100 ["
b10000000000000000011100 \
b10000000000000000011100 6
b10000000000000000011100 a"
b10 P
b10 F
b10 S"
b1000 (
b1000 X"
b1000 !
b1000 T"
b1000 J
1I
#210
0I
#220
b10001100100110100000101010 3
b10001100100110100000101010 5"
b10001100100110100000101010 $"
b10001100100110100000101010 p"
b10 3"
b1100 %
b1100 F"
b111 L"
b10000000000000000101000 7
b10000000000000000101000 1"
b111 O"
b11111111111111111111111111111000 t
b1001 o"
b10000000000000000101000 0"
b100110 ,
b100110 D"
b110000000100110 1
b110000000100110 6"
b1000010001011000000010011000 ."
b10 @
b10 &"
b1011000001001010000000000000000 K"
b10000000000000000101000 -"
b10000011000000010111100 2"
b10000000000000000100100 B
b10000000000000000100100 _"
b10000100010110000000100110 C
b10000100010110000000100110 \"
b1011 &
b1011 V"
b1010 '
b1010 W"
b1001 J
b1001 (
b1001 X"
b10 !
b10 T"
b1 P
b1 F
b1 S"
b1 ^"
b101100000100101 2
b101100000100101 ["
b10000000000000000100000 \
b10000000000000000100000 6
b10000000000000000100000 a"
b10000000000000000100100 5
b10000000000000000100100 `"
1I
#230
0I
#240
b100100111000010000010 3
b100100111000010000010 5"
b100100111000010000010 $"
b100100111000010000010 p"
b110 Q"
b10 M"
1d
0f
b11 /"
b10000 0
b10000 >"
0O
b11 ,"
b11 /
b11 ?"
b10000 <
b10000 '"
b1101 %
b1101 F"
b11 :
b11 ("
b10010 ?
b10010 u
b10000000000000000101100 7
b10000000000000000101100 1"
b1 O"
b110 t
b110 L"
b101010 ,
b101010 D"
b10001 >
b10001 v
b110100000101010 1
b110100000101010 6"
b1000110010011010000010101000 ."
b1010 o"
b10000000000000000101100 0"
b1100000001001100000000000000000 K"
b1 @
b1 &"
b1011 '
b1011 W"
b1100 &
b1100 V"
b10001100100110100000101010 C
b10001100100110100000101010 \"
b10000000000000000101100 -"
b10000011010000011010000 2"
b10000000000000000101000 B
b10000000000000000101000 _"
b10000000000000000101000 5
b10000000000000000101000 `"
b10 ^"
b110000000100110 2
b110000000100110 ["
b10000000000000000100100 \
b10000000000000000100100 6
b10000000000000000100100 a"
b111 P
b111 F
b111 S"
b1010 (
b1010 X"
b1 !
b1 T"
b1010 J
1I
#250
0I
#260
b100110111100010000000 3
b100110111100010000000 5"
b100110111100010000000 $"
b100110111100010000000 p"
b10000 J"
b10000 I"
b10000 G"
b10000 {
b10000 w
b101 Q"
b10000 |
b10000 x
b10000 }
b10000 y
b10011 L"
0d
1g
b0 /"
b10000 ~
b10000 z
b1 H"
b0 O"
b11111111111111111111111111101100 Y
b10011 t
b11111111111111111111111111110011 M"
b0 ,"
b0 /
b0 ?"
b1110 %
b1110 F"
b10000 G
b10000 R"
b0 V
b10011 Z
b10011 ]
b10000000000000000110000 7
b10000000000000000110000 1"
b0 :
b0 ("
b10000 .
b10000 B"
b10011 N"
b111111111111111111111111111110011 E"
b11 H
b11 Q
b11 -
b11 C"
b1011 o"
b10000000000000000110000 0"
b10 ,
b10 D"
b0 >
b0 v
b111000010000010 1
b111000010000010 6"
b10010011100001000001000 ."
b111 @
b111 &"
b1101000001010100000000000000000 K"
b10000000000000000110000 -"
b10000011100001000110100 2"
b10000000000000000101100 B
b10000000000000000101100 _"
b100100111000010000010 C
b100100111000010000010 \"
b1101 &
b1101 V"
b1100 '
b1100 W"
b1011 J
b1011 (
b1011 X"
b111 !
b111 T"
b110 P
b110 F
b110 S"
b110 U"
b110100000101010 2
b110100000101010 ["
b10000 =
b10000 j"
b11 ;
b11 i"
b10000000000000000101000 \
b10000000000000000101000 6
b10000000000000000101000 a"
b10000000000000000101100 5
b10000000000000000101100 `"
1I
#270
0I
#280
b100100000000100000000000001010 3
b100100000000100000000000001010 5"
b100100000000100000000000001010 $"
b100100000000100000000000001010 p"
b100 J"
b1000000 I"
b100 G"
b1000000 {
b100 w
b10000 L"
b10 0
b10 >"
b1000000 |
b100 x
b11111111111111111111111111101111 Y
b10000 t
b11111111111111111111111111110000 M"
b0 3"
b10 <
b10 '"
b1111 %
b1111 F"
b1000000 }
b100 y
b10000 Z
b10000 ]
b10011 ?
b10011 u
b10000000000000000110100 7
b10000000000000000110100 1"
b10000 N"
b111111111111111111111111111110000 E"
b0 H
b0 Q
b0 -
b0 C"
b0 ,
b0 D"
b111100010000000 1
b111100010000000 6"
b10011011110001000000000 ."
b1100 o"
b10000000000000000110100 0"
b1110000100000100000000000000000 K"
b10 "
b10 P"
b110 @
b110 &"
b1101 '
b1101 W"
b1110 &
b1110 V"
b100110111100010000000 C
b100110111100010000000 \"
b10000000000000000110100 -"
b10000011110001000110000 2"
b10000000000000000110000 B
b10000000000000000110000 _"
b10000000000000000110000 5
b10000000000000000110000 `"
b101 U"
b111000010000010 2
b111000010000010 ["
b0 ;
b0 i"
b10000000000000000101100 \
b10000000000000000101100 6
b10000000000000000101100 a"
b1 P
b1 F
b1 S"
b10000 [
b10000 A
b10000 b"
b1100 (
b1100 X"
b110 !
b110 T"
b1100 J
1I
#290
0I
#300
b1100 3
b1100 5"
b1100 $"
b1100 p"
b1000 I"
b0 G"
b1000 {
b0 w
b1000 |
b0 x
b1000 }
b0 y
b10 M"
b10 t
b11111111111111111111111111111101 Y
b1 Q"
1q
b0 0
b0 >"
1O
b10 ~
b10 z
b10 ]
b10 Z
1c
b0 <
b0 '"
b10 %
b10 F"
b10 N"
b111111111111111111111111111111110 E"
b10 G
b10 R"
b10000000000000000111000 7
b10000000000000000111000 1"
b1 3"
0g
b0 ?
b0 u
b1000 J"
b0 L"
b10 .
b10 B"
b1101 o"
b10000000000000000111000 0"
0r
08"
b1001 4
b1001 4"
b1010 ,
b1010 D"
b1010 1
b1010 6"
b10000000000000101000 ."
b1 @
b1 &"
b1111000100000000000000000000000 K"
b10000000000000000111000 -"
b10000000000000001011100 2"
b10000000000000000110100 B
b10000000000000000110100 _"
b100100000000100000000000001010 C
b100100000000100000000000001010 \"
b1111 &
b1111 V"
b1110 '
b1110 W"
b1101 J
b1101 (
b1101 X"
b1 !
b1 T"
b100 P
b100 F
b100 S"
b0 ^"
b111100010000000 2
b111100010000000 ["
b10 =
b10 j"
b10000000000000000110000 \
b10000000000000000110000 6
b10000000000000000110000 a"
b10000000000000000110100 5
b10000000000000000110100 `"
1I
#310
0I
#320
b0 3
b0 5"
b0 $"
b0 p"
0q
b0 Q"
b1010 J"
b1010 I"
b1010 G"
b1010 {
b1010 w
b1010 |
b1010 x
b0 %
b0 F"
0c
b1010 M"
b11111111111111111111111111110101 Y
b1010 L"
b1010 }
b1010 y
b0 3"
1D
1i
b10000000000000000111100 7
b10000000000000000111100 1"
b1010 ~
b1010 z
b1010 ]
b1010 Z
b1010 O"
b11111111111111111111111111110101 t
b0 .
b0 B"
1r
18"
b0 4
b0 4"
b1100 ,
b1100 D"
b1100 1
b1100 6"
b110000 ."
b1110 o"
b10000000000000000111100 0"
b1010 N"
b111111111111111111111111111110110 E"
b1010 G
b1010 R"
b10100000000000000000 K"
b0 "
b0 P"
b100 @
b100 &"
b1111 '
b1111 W"
b10 &
b10 V"
b1100 C
b1100 \"
b10000000000000000111100 -"
b10000000000000001101000 2"
b10000000000000000111000 B
b10000000000000000111000 _"
b10000000000000000111000 5
b10000000000000000111000 `"
0n"
b1 ^"
b1 U"
b1010 2
b1010 ["
b0 =
b0 j"
b10000000000000000110100 \
b10000000000000000110100 6
b10000000000000000110100 a"
b1000 P
b1000 F
b1000 S"
b10 [
b10 A
b10 b"
b1110 (
b1110 X"
b100 !
b100 T"
b1110 J
1I
#330
0I
#340
b0 J"
b101 Q"
1q
b0 I"
b0 G"
b0 {
b0 w
1g
b0 |
b0 x
b0 L"
b0 }
b0 y
b0 M"
b11111111111111111111111111111111 Y
b10000000000000001000000 7
b10000000000000001000000 1"
0D
0i
b0 O"
b0 t
b0 ~
b0 z
b0 H"
b0 ]
b0 Z
b1111 o"
b10000000000000001000000 0"
b0 ,
b0 D"
b0 1
b0 6"
b0 ."
b1000 @
b1000 &"
b0 N"
b0 E"
b0 G
b0 R"
b11000000000000000000 K"
b10000000000000001000000 -"
b10000000000000000111100 2"
b10000000000000000111100 B
b10000000000000000111100 _"
b0 C
b0 \"
b0 &
b0 V"
0k"
b10 '
b10 W"
1K
b1111 J
b1111 (
b1111 X"
b1000 !
b1000 T"
b0 [
b0 A
b0 b"
b1010 P
b1010 F
b1010 S"
1n"
b0 ^"
b0 U"
b1100 2
b1100 ["
b10000000000000000111000 \
b10000000000000000111000 6
b10000000000000000111000 a"
b10000000000000000111100 5
b10000000000000000111100 `"
1I
#350
0I
#360
b10000000000000001000100 7
b10000000000000001000100 1"
b10000 o"
b10000000000000001000100 0"
b0 K"
b1010 @
b1010 &"
b0 '
b0 W"
0l"
1k"
b10000000000000001000100 -"
b10000000000000001000000 2"
b10000000000000001000000 B
b10000000000000001000000 _"
b10000000000000001000000 5
b10000000000000001000000 `"
b101 U"
b0 2
b0 ["
b10000000000000000111100 \
b10000000000000000111100 6
b10000000000000000111100 a"
b0 P
b0 F
b0 S"
b10 (
b10 X"
b1010 !
b1010 T"
b10000 J
1L
0K
1I
#370
0I
#380
b10000000000000001001000 7
b10000000000000001001000 1"
b10001 o"
b10000000000000001001000 0"
b0 @
b0 &"
b10000000000000001001000 -"
b10000000000000001000100 2"
b10000000000000001000100 B
b10000000000000001000100 _"
1l"
0m"
1M
0L
b10001 J
b0 (
b0 X"
b0 !
b0 T"
b10000000000000001000000 \
b10000000000000001000000 6
b10000000000000001000000 a"
b10000000000000001000100 5
b10000000000000001000100 `"
1I
