day3/mips.vcd
$date
	Sun Jul 24 10:44:31 2022
$end
$version
	Icarus Verilog
$end
$timescale
	1ns
$end
$scope module sim $end
$var wire 32 ! alu_q4 [31:0] $end
$var wire 5 " amt [4:0] $end
$var wire 1 # ctrl_hzd $end
$var wire 1 $ data_hzd $end
$var wire 5 % dst [4:0] $end
$var wire 5 & dst2 [4:0] $end
$var wire 5 ' dst3 [4:0] $end
$var wire 5 ( dst4 [4:0] $end
$var wire 1 ) en_dly $end
$var wire 1 * en_fwd $end
$var wire 1 + en_hzd $end
$var wire 6 , fn [5:0] $end
$var wire 32 - fwd_alu_a [31:0] $end
$var wire 32 . fwd_alu_b [31:0] $end
$var wire 32 / fwd_reg_a [31:0] $end
$var wire 32 0 fwd_reg_b [31:0] $end
$var wire 32 1 imm_val [31:0] $end
$var wire 32 2 imm_val2 [31:0] $end
$var wire 32 3 inst [31:0] $end
$var wire 6 4 op [5:0] $end
$var wire 32 5 pc1 [31:0] $end
$var wire 32 6 pc2 [31:0] $end
$var wire 32 7 pc_din [31:0] $end
$var wire 32 8 ram_dout [31:0] $end
$var wire 32 9 ram_dout4 [31:0] $end
$var wire 32 : reg_a [31:0] $end
$var wire 32 ; reg_a2 [31:0] $end
$var wire 32 < reg_b [31:0] $end
$var wire 32 = reg_b2 [31:0] $end
$var wire 5 > src_a [4:0] $end
$var wire 5 ? src_b [4:0] $end
$var wire 32 @ reg_din [31:0] $end
$var wire 32 A ram_din3 [31:0] $end
$var wire 32 B pc0 [31:0] $end
$var wire 32 C inst1 [31:0] $end
$var wire 1 D halt $end
$var wire 1 E fwd_sel $end
$var wire 32 F alu_q3 [31:0] $end
$var wire 32 G alu_b [31:0] $end
$var wire 32 H alu_a [31:0] $end
$var reg 1 I clk $end
$var reg 20 J cnt [19:0] $end
$var reg 1 K halt2 $end
$var reg 1 L halt3 $end
$var reg 1 M halt4 $end
$var reg 1 N rst $end
$var integer 32 O i [31:0] $end
$scope module mips $end
$var wire 1 P addsub_sel $end
$var wire 32 Q adrs [31:0] $end
$var wire 32 R alu_a [31:0] $end
$var wire 1 S alu_hzd $end
$var wire 1 T brn_hzd $end
$var wire 1 U brn_taken $end
$var wire 1 I clk $end
$var wire 1 V ctrl_hzd $end
$var wire 32 W dand [31:0] $end
$var wire 1 X data_hzd $end
$var wire 32 Y din [31:0] $end
$var wire 32 Z dnor [31:0] $end
$var wire 32 [ dor [31:0] $end
$var wire 32 \ dout [31:0] $end
$var wire 32 ] dpc [31:0] $end
$var wire 32 ^ dxor [31:0] $end
$var wire 1 ) en_dly $end
$var wire 1 * en_fwd $end
$var wire 1 + en_hzd $end
$var wire 1 _ ex_mem $end
$var wire 1 ` ex_mem_a $end
$var wire 1 a ex_mem_b $end
$var wire 1 b fwd_id_sel_a $end
$var wire 1 c fwd_id_sel_b $end
$var wire 1 D halt $end
$var wire 1 d i_add $end
$var wire 1 e i_comp $end
$var wire 1 f i_jr $end
$var wire 1 g i_logic $end
$var wire 1 h i_shift $end
$var wire 1 i i_sub $end
$var wire 1 j i_syscall $end
$var wire 1 k id_ex $end
$var wire 1 l id_ex_a $end
$var wire 1 m id_ex_b $end
$var wire 1 n ram_hzd $end
$var wire 1 o ram_rd $end
$var wire 1 p ram_wr $end
$var wire 1 q rd $end
$var wire 1 r reg_wr $end
$var wire 1 N rst $end
$var wire 1 s src_sel_b $end
$var wire 1 t wr $end
$var wire 32 u xor_nor [31:0] $end
$var wire 5 v src_b [4:0] $end
$var wire 5 w src_a [4:0] $end
$var wire 32 x sr3 [31:0] $end
$var wire 32 y sr2 [31:0] $end
$var wire 32 z sr1 [31:0] $end
$var wire 32 { sr0 [31:0] $end
$var wire 32 | sl3 [31:0] $end
$var wire 32 } sl2 [31:0] $end
$var wire 32 ~ sl1 [31:0] $end
$var wire 32 !" sl0 [31:0] $end
$var wire 1 "" si $end
$var wire 1 #" sgn_b $end
$var wire 1 $" sgn_a $end
$var wire 32 %" rom_data [31:0] $end
$var wire 1 &" rom_cs $end
$var wire 32 '" reg_din [31:0] $end
$var wire 32 (" reg_b [31:0] $end
$var wire 32 )" reg_a [31:0] $end
$var wire 32 *" ram_dout [31:0] $end
$var wire 1 +" ram_cs $end
$var wire 2 ," pc_sel [1:0] $end
$var wire 32 -" pc_reg [31:0] $end
$var wire 32 ." pc_next [31:0] $end
$var wire 32 /" pc_jump [31:0] $end
$var wire 32 0" pc_din1 [31:0] $end
$var wire 32 1" pc_din0 [31:0] $end
$var wire 32 2" pc_din [31:0] $end
$var wire 32 3" pc_brn [31:0] $end
$var wire 2 4" op_sel [1:0] $end
$var wire 6 5" op [5:0] $end
$var wire 32 6" inst [31:0] $end
$var wire 32 7" imm_val [31:0] $end
$var wire 1 8" i_sw $end
$var wire 1 9" i_rfmt $end
$var wire 1 :" i_lw $end
$var wire 1 ;" i_lui $end
$var wire 1 <" i_jal $end
$var wire 1 =" i_j $end
$var wire 1 >" i_brn $end
$var wire 32 ?" fwd_reg_b [31:0] $end
$var wire 32 @" fwd_reg_a [31:0] $end
$var wire 2 A" fwd_ex_sel_b [1:0] $end
$var wire 2 B" fwd_ex_sel_a [1:0] $end
$var wire 32 C" fwd_alu_b [31:0] $end
$var wire 32 D" fwd_alu_a [31:0] $end
$var wire 6 E" fn [5:0] $end
$var wire 33 F" dsub [32:0] $end
$var wire 5 G" dst [4:0] $end
$var wire 32 H" dsr [31:0] $end
$var wire 32 I" dslt [31:0] $end
$var wire 32 J" dsl [31:0] $end
$var wire 32 K" dshift [31:0] $end
$var wire 32 L" dlui [31:0] $end
$var wire 32 M" dlogic [31:0] $end
$var wire 32 N" daddsub [31:0] $end
$var wire 33 O" dadd [32:0] $end
$var wire 32 P" and_or [31:0] $end
$var wire 5 Q" amt [4:0] $end
$var wire 3 R" alu_sel [2:0] $end
$var wire 32 S" alu_b [31:0] $end
$var reg 32 T" alu_q3 [31:0] $end
$var reg 32 U" alu_q4 [31:0] $end
$var reg 3 V" alu_sel2 [2:0] $end
$var reg 5 W" dst2 [4:0] $end
$var reg 5 X" dst3 [4:0] $end
$var reg 5 Y" dst4 [4:0] $end
$var reg 2 Z" fwd_ex_sel_a2 [1:0] $end
$var reg 2 [" fwd_ex_sel_b2 [1:0] $end
$var reg 32 \" imm_val2 [31:0] $end
$var reg 32 ]" inst1 [31:0] $end
$var reg 1 ^" nop1 $end
$var reg 2 _" op_sel2 [1:0] $end
$var reg 32 `" pc0 [31:0] $end
$var reg 32 a" pc1 [31:0] $end
$var reg 32 b" pc2 [31:0] $end
$var reg 32 c" ram_din3 [31:0] $end
$var reg 32 d" ram_dout4 [31:0] $end
$var reg 1 e" ram_rd2 $end
$var reg 1 f" ram_rd3 $end
$var reg 1 g" ram_rd4 $end
$var reg 1 h" ram_wr2 $end
$var reg 1 i" ram_wr3 $end
$var reg 32 j" reg_a2 [31:0] $end
$var reg 32 k" reg_b2 [31:0] $end
$var reg 1 l" reg_wr2 $end
$var reg 1 m" reg_wr3 $end
$var reg 1 n" reg_wr4 $end
$var reg 1 o" src_sel_b2 $end
$scope module rom $end
$var wire 9 p" adrs [8:0] $end
$var reg 32 q" dout [31:0] $end
$upscope $end
$upscope $end
$upscope $end
$enddefinitions $end
#0
$dumpvars
bx q"
bx p"
xo"
xn"
xm"
xl"
bx k"
bx j"
xi"
xh"
xg"
xf"
xe"
bx d"
bx c"
bx b"
bx a"
bx `"
bx _"
0^"
bx ]"
bx \"
bx ["
bx Z"
bx Y"
bx X"
bx W"
bx V"
bx U"
b0 T"
bx S"
bx R"
bx Q"
bx P"
bx O"
bx N"
bx M"
bx0000000000000000 L"
bx K"
bx J"
b0x I"
bx H"
bx G"
bx F"
bx E"
bx D"
bx C"
bx B"
bx A"
bx @"
bx ?"
x>"
x="
x<"
x;"
x:"
x9"
x8"
bx 7"
bx 6"
bx 5"
bx 4"
bx 3"
bx 2"
bx 1"
bx 0"
bx00 /"
bx ."
bx -"
bx ,"
0+"
bx *"
bx )"
bx ("
bx '"
x&"
bx %"
x$"
x#"
x""
bx !"
bx ~
bx }
bx |
bx {
bx z
bx y
bx x
bx w
bx v
bx u
xt
xs
xr
xq
xp
xo
xn
xm
xl
xk
xj
xi
xh
xg
xf
xe
xd
xc
xb
xa
x`
x_
bx ^
bx ]
bx \
bx [
bx Z
b0 Y
xX
bx W
0V
xU
xT
0S
bx R
b0 Q
xP
bx O
1N
xM
xL
xK
bx J
1I
bx H
bx G
b0 F
xE
xD
bx C
bx B
bx A
bx @
bx ?
bx >
bx =
bx <
bx ;
bx :
bx 9
bx 8
bx 7
bx 6
bx 5
bx 4
bx 3
bx 2
bx 1
bx 0
bx /
bx .
bx -
bx ,
1+
1*
1)
bx (
bx '
bx &
bx %
x$
0#
bx "
bx !
$end
#10
0I
#13
b111100000000010001000000000001 3
b111100000000010001000000000001 6"
b111100000000010001000000000001 %"
b111100000000010001000000000001 q"
1r
0$
0X
b10000000000000000000100 7
b10000000000000000000100 2"
b101 R"
b0 ,"
1h
0T
b0 0"
0n
b0 0
b0 ?"
0E
0c
b0 A"
0g
0U
0d
0e
b0 -"
b0 /
b0 @"
0k
0_
0b
b0 B"
b0 <
b0 ("
0a
0m
b0 4"
0i
b0 %
b0 G"
0>"
0f
0D
0j
b0 :
b0 )"
0l
0`
b0 ?
b0 v
b10000000000000000000000 3"
1s
19"
0="
0<"
0;"
0o
0:"
0p
08"
b0 4
b0 5"
b0 ,
b0 E"
b0 >
b0 w
b0 1
b0 7"
1&"
b0 p"
b10000000000000000000100 1"
b0 /"
0n"
b0 '
b0 X"
0m"
0t
0i"
b0 &
b0 W"
0l"
0h"
1^"
b0 C
b0 ]"
b10000000000000000000100 ."
b10000000000000000000000 B
b10000000000000000000000 `"
0N
#20
b0 K"
b0 J"
b0 H"
b0 |
b0 x
b0 N"
b0 }
b0 y
b0 I"
b0 ~
b0 z
b0 O"
b0 F"
0#"
b0 u
b11111111111111111111111111111111 Z
b0 M"
b0 !"
b0 {
b0 ^
b0 [
b0 P"
0$"
1P
b0 G
b0 S"
b0 W
b0 .
b0 C"
b0 H
b0 R
b0 -
b0 D"
0""
b0 L"
b0 "
b0 Q"
0M
0L
0K
b0 J
b0 (
b0 Y"
b0 !
b0 U"
b0 ["
b0 Z"
1o"
0e"
b0 _"
b101 V"
b0 2
b0 \"
b0 =
b0 k"
b0 ;
b0 j"
b10000000000000000000100 5
b10000000000000000000100 a"
1I
#30
0I
#40
b10000000000000000001000 ]
b10000000000000000001000 6
b10000000000000000001000 b"
0q
0f"
b0 \
b0 A
b0 c"
1I
#50
0I
#53
1N
#60
b110100001100000000000000000000 3
b110100001100000000000000000000 6"
b110100001100000000000000000000 %"
b110100001100000000000000000000 q"
b0 0
b0 ?"
b11 R"
b0 <
b0 ("
b1 %
b1 G"
b10000000000000000001000 7
b10000000000000000001000 2"
b11 4"
0h
b0 ?
b0 v
b1 p"
b10000000000000000001000 1"
0s
09"
1;"
b1111 4
b1111 5"
b1 ,
b1 E"
b1000000000001 1
b1000000000001 7"
b1000100000000000100 /"
b0 @
b0 '"
b10000000000000000001000 ."
b10000000100000000001000 3"
b10000000000000000000100 B
b10000000000000000000100 `"
b111100000000010001000000000001 C
b111100000000010001000000000001 ]"
0^"
b1 J
0g"
1I
#70
0I
#80
b100100000001000000000000111111 3
b100100000001000000000000111111 6"
b100100000001000000000000111111 %"
b100100000001000000000000111111 q"
b1000000000001 K"
b1000000000001 J"
b1000000000001 H"
1r
b1000000000001 |
b1000000000001 x
1g
bx 0"
b10000 %
b10000 G"
b1000000000001 }
b1000000000001 y
0P
b100 R"
b1 4"
bx -"
bx /
bx @"
b1000000000001 ~
b1000000000001 z
b11111111111111111110111111111111 N"
b11111111111111111110111111111110 Z
b1000000000001 P"
b11111111111111111110111111111110 M"
1k
1E
b1 B"
bx :
bx )"
b10000000000000000001100 7
b10000000000000000001100 2"
b1000000000001 !"
b1000000000001 {
b1 I"
b1000000000001 ^
b1000000000001 [
b11111111111111111110111111111110 u
1l
0;"
b1101 4
b1101 5"
b0 ,
b0 E"
b1 >
b1 w
b0 1
b0 7"
b110000000000000000000000 /"
b10 p"
b10000000000000000001100 1"
b1000000000001 O"
b111111111111111111110111111111111 F"
b1000000000001 G
b1000000000001 S"
b10000000000010000000000000000 L"
b1 &
b1 W"
1l"
b110100001100000000000000000000 C
b110100001100000000000000000000 ]"
b10000000000000000001100 ."
b10000000000000000001000 3"
b10000000000000000001000 B
b10000000000000000001000 `"
b10000000000000000001000 5
b10000000000000000001000 a"
0o"
b11 _"
b11 V"
b1000000000001 2
b1000000000001 \"
b10 J
1I
#90
0I
#100
b10101110000001000000000000000000 3
b10101110000001000000000000000000 6"
b10101110000001000000000000000000 %"
b10101110000001000000000000000000 q"
1r
b0 K"
b0 J"
b0 H"
b1 R"
b0 |
b0 x
0g
b0 0"
b100 %
b100 G"
1P
b0 }
b0 y
b11101111111111101111111111111111 u
1d
b0 -"
b0 /
b0 @"
0E
b0 ~
b0 z
b10000000000010000000000000000 N"
b11101111111111101111111111111111 Z
b10000000000010000000000000000 P"
b10000000000000000010000 7
b10000000000000000010000 2"
b0 :
b0 )"
0k
0_
b0 B"
b10000000000010000000000000000 M"
b0 !"
b0 {
b0 I"
b10000000000010000000000000000 ^
b10000000000010000000000000000 [
b10000000000010000000000000000 H
b10000000000010000000000000000 R
b10000000000010000000000000000 -
b10000000000010000000000000000 D"
b11 p"
b10000000000000000010000 1"
b1001 4
b1001 5"
b111111 ,
b111111 E"
b0 >
b0 w
b111111 1
b111111 7"
b100000000000011111100 /"
0l
0`
1+"
b10000000000010000000000000000 O"
b10000000000010000000000000000 F"
b0 G
b0 S"
b0 L"
b10000000000000000010000 ."
b10000000000000100001000 3"
b10000000000000000001100 B
b10000000000000000001100 `"
b100100000001000000000000111111 C
b100100000001000000000000111111 ]"
b10000 &
b10000 W"
b1 '
b1 X"
1m"
b11 J
b10000000000010000000000000000 Q
b10000000000010000000000000000 F
b10000000000010000000000000000 T"
b1 Z"
b1 _"
b100 V"
b0 2
b0 \"
bx ;
bx j"
b10000000000000000001100 ]
b10000000000000000001100 6
b10000000000000000001100 b"
b10000000000000000001100 5
b10000000000000000001100 a"
1I
#110
0I
#120
b100100000001000000000001010110 3
b100100000001000000000001010110 6"
b100100000001000000000001010110 %"
b100100000001000000000001010110 q"
b0 %
b0 G"
0r
b111111 K"
b111111 J"
b111111 H"
bx 0
bx ?"
1k
b1 A"
b111111 |
b111111 x
bx <
bx ("
1m
bx 0"
b111111 }
b111111 y
b11111111111111111111111111000000 u
b111111 M"
0d
b100 ?
b100 v
b11 4"
bx -"
bx /
bx @"
1_
1E
b10 B"
b1 I"
b111111 ~
b111111 z
b111111 N"
b11111111111111111111111111000000 Z
b111111 P"
bx :
bx )"
1`
b10000000000000000010100 7
b10000000000000000010100 2"
b0 H
b0 R
b0 -
b0 D"
b111111 !"
b111111 {
b111111 ^
b111111 [
1p
18"
b101011 4
b101011 5"
b0 ,
b0 E"
b10000 >
b10000 w
b0 1
b0 7"
b1000000100000000000000000000 /"
b100 p"
b10000000000000000010100 1"
b111111 O"
b111111111111111111111111111000001 F"
b111111 G
b111111 S"
b1111110000000000000000 L"
b10000000000010000000000000000 @
b10000000000010000000000000000 '"
1n"
b10000 '
b10000 X"
b100 &
b100 W"
b10101110000001000000000000000000 C
b10101110000001000000000000000000 ]"
b10000000000000000010100 ."
b10000000000000000010000 3"
b10000000000000000010000 B
b10000000000000000010000 `"
b10000000000000000010000 5
b10000000000000000010000 a"
b0 Z"
b1 V"
b111111 2
b111111 \"
b0 ;
b0 j"
b10000000000000000010000 ]
b10000000000000000010000 6
b10000000000000000010000 b"
b1 (
b1 Y"
b10000000000010000000000000000 !
b10000000000010000000000000000 U"
b100 J
1I
#130
0I
#140
b10101110000001000000000000000100 3
b10101110000001000000000000000100 6"
b10101110000001000000000000000100 %"
b10101110000001000000000000000100 q"
b100 %
b100 G"
1r
b0 K"
b0 J"
b0 H"
b0 0
b0 ?"
0_
0E
b0 |
b0 x
b0 <
b0 ("
b0 0"
b0 }
b0 y
b11101111111111101111111111111111 u
1d
b0 ?
b0 v
b1 4"
b0 -"
b0 /
b0 @"
b0 ~
b0 z
b10000000000010000000000000000 N"
b11101111111111101111111111111111 Z
b10000000000010000000000000000 P"
b10000000000000000011000 7
b10000000000000000011000 2"
b1 R"
b0 :
b0 )"
0k
b0 B"
b0 A"
b11101111111111101111111111111111 M"
b0 !"
b0 {
b0 I"
b10000000000010000000000000000 ^
b10000000000010000000000000000 [
b111111 .
b111111 C"
b10000000000010000000000000000 H
b10000000000010000000000000000 R
b10000000000010000000000000000 -
b10000000000010000000000000000 D"
b101 p"
b10000000000000000011000 1"
0p
08"
b1001 4
b1001 5"
b10110 ,
b10110 E"
b0 >
b0 w
b1010110 1
b1010110 7"
b100000000000101011000 /"
0m
0`
0a
0+"
b10000000000010000000000000000 O"
b10000000000010000000000000000 F"
b0 G
b0 S"
b0 L"
b10000000000000000011000 ."
b10000000000000101101100 3"
b10000000000000000010100 B
b10000000000000000010100 `"
b100100000001000000000001010110 C
b100100000001000000000001010110 ]"
b0 &
b0 W"
0l"
1h"
b100 '
b100 X"
b101 J
b10000 (
b10000 Y"
b111111 Q
b111111 F
b111111 T"
b1 ["
b10 Z"
b11 _"
b0 2
b0 \"
bx =
bx k"
bx ;
bx j"
b10000000000000000010100 ]
b10000000000000000010100 6
b10000000000000000010100 b"
b10000000000000000010100 5
b10000000000000000010100 a"
1I
#150
0I
#160
b100100000001000000000001000000 3
b100100000001000000000001000000 6"
b100100000001000000000001000000 %"
b100100000001000000000001000000 q"
b0 %
b0 G"
0r
b10101100 K"
b10101100 J"
b101011 H"
b10101100 |
b101011 x
b111111 0
b111111 ?"
1k
1E
b1 A"
b10101100 }
b101011 y
b111111 <
b111111 ("
1m
b10000000000010000000000000000 0"
b10101100 ~
b101011 z
b11111111111111111111111110101001 u
b1 I"
0d
b100 ?
b100 v
b11 4"
b10000000000010000000000000000 -"
b10000000000010000000000000000 /
b10000000000010000000000000000 @"
b10101100 !"
b101011 {
b11111111111111111111111110101001 Z
b1010110 P"
b0 H
b0 R
b0 -
b0 D"
b1010110 N"
b10000000000010000000000000000 :
b10000000000010000000000000000 )"
b10000000000000000011100 7
b10000000000000000011100 2"
b1010110 M"
b1010110 ^
b1010110 [
1P
1p
18"
b101011 4
b101011 5"
b100 ,
b100 E"
b10000 >
b10000 w
b100 1
b100 7"
b1000000100000000000000010000 /"
b110 p"
b10000000000000000011100 1"
b1010110 O"
b111111111111111111111111110101010 F"
b1010110 G
b1010110 S"
b10101100000000000000000 L"
b1 "
b1 Q"
b0 .
b0 C"
1+"
b111111 @
b111111 '"
b0 '
b0 X"
0m"
1t
1i"
b100 &
b100 W"
1l"
0h"
b10101110000001000000000000000100 C
b10101110000001000000000000000100 ]"
b10000000000000000011100 ."
b10000000000000000101000 3"
b10000000000000000011000 B
b10000000000000000011000 `"
b10000000000000000011000 5
b10000000000000000011000 a"
b0 ["
b0 Z"
b1 _"
b1010110 2
b1010110 \"
b0 =
b0 k"
b0 ;
b0 j"
b10000000000000000011000 ]
b10000000000000000011000 6
b10000000000000000011000 b"
b10000000000010000000000000000 Q
b10000000000010000000000000000 F
b10000000000010000000000000000 T"
b111111 \
b111111 A
b111111 c"
b100 (
b100 Y"
b111111 !
b111111 U"
b110 J
1I
#170
0I
#180
b10101110000001000000000000001000 3
b10101110000001000000000000001000 6"
b10101110000001000000000000001000 %"
b10101110000001000000000000001000 q"
b100 %
b100 G"
1r
b100 J"
b100 H"
b100 |
b100 x
b0 0
b0 ?"
0E
b100 }
b100 y
b0 <
b0 ("
b0 0"
b11101111111111101111111111111011 u
b100 ~
b100 z
1d
b0 ?
b0 v
b1 4"
b0 -"
b0 /
b0 @"
b10000000000010000000000000100 N"
b11101111111111101111111111111011 Z
b10000000000010000000000000100 P"
b100 !"
b100 {
b0 I"
b10000000000000000100000 7
b10000000000000000100000 2"
b1 R"
b0 :
b0 )"
0k
0_
b0 A"
b100 K"
b11101111111111101111111111111011 M"
b10000000000010000000000000100 ^
b10000000000010000000000000100 [
b1010110 .
b1010110 C"
b10000000000010000000000000000 H
b10000000000010000000000000000 R
b10000000000010000000000000000 -
b10000000000010000000000000000 D"
b111 p"
b10000000000000000100000 1"
0p
08"
b1001 4
b1001 5"
b0 ,
b0 E"
b0 >
b0 w
b1000000 1
b1000000 7"
b100000000000100000000 /"
0m
0a
b10000000000010000000000000000 @
b10000000000010000000000000000 '"
0+"
b10000000000010000000000000100 O"
b10000000000001111111111111100 F"
b100 G
b100 S"
b1000000000000000000 L"
b0 "
b0 Q"
b10000000000000000100000 ."
b10000000000000100011100 3"
b10000000000000000011100 B
b10000000000000000011100 `"
b100100000001000000000001000000 C
b100100000001000000000001000000 ]"
b0 &
b0 W"
0l"
1h"
b100 '
b100 X"
1m"
0t
0i"
0n"
b111 J
b0 (
b0 Y"
b10000000000010000000000000000 !
b10000000000010000000000000000 U"
b0 \
b0 A
b0 c"
b1010110 Q
b1010110 F
b1010110 T"
b1 ["
b11 _"
b100 2
b100 \"
b111111 =
b111111 k"
b10000000000010000000000000000 ;
b10000000000010000000000000000 j"
b10000000000000000011100 ]
b10000000000000000011100 6
b10000000000000000011100 b"
b10000000000000000011100 5
b10000000000000000011100 a"
1I
#190
0I
#200
b100100000001000000000001100010 3
b100100000001000000000001100010 6"
b100100000001000000000001100010 %"
b100100000001000000000001100010 q"
b0 %
b0 G"
0r
b10000000 K"
b10000000 J"
b100000 H"
b1010110 0
b1010110 ?"
1k
1E
b1 A"
b10000000 |
b100000 x
b1010110 <
b1010110 ("
1m
b10000000000010000000000000000 0"
b10000000 }
b100000 y
b11111111111111111111111110111111 u
0d
b100 ?
b100 v
b11 4"
b10000000000010000000000000000 -"
b10000000000010000000000000000 /
b10000000000010000000000000000 @"
b10000000 ~
b100000 z
b11111111111111111111111110111111 Z
b1000000 P"
b1 I"
b1000000 N"
b10000000000010000000000000000 :
b10000000000010000000000000000 )"
b10000000000000000100100 7
b10000000000000000100100 2"
b1000000 M"
b10000000 !"
b100000 {
b1000000 ^
b1000000 [
b0 H
b0 R
b0 -
b0 D"
1P
1p
18"
b101011 4
b101011 5"
b1000 ,
b1000 E"
b10000 >
b10000 w
b1000 1
b1000 7"
b1000000100000000000000100000 /"
b1000 p"
b10000000000000000100100 1"
b1000000 O"
b111111111111111111111111111000000 F"
b1000000 G
b1000000 S"
b10000000000000000000000 L"
b1 "
b1 Q"
b0 .
b0 C"
1+"
b1010110 @
b1010110 '"
1n"
b0 '
b0 X"
0m"
1t
1i"
b100 &
b100 W"
1l"
0h"
b10101110000001000000000000001000 C
b10101110000001000000000000001000 ]"
b10000000000000000100100 ."
b10000000000000001000000 3"
b10000000000000000100000 B
b10000000000000000100000 `"
b10000000000000000100000 5
b10000000000000000100000 a"
b0 ["
b1 _"
b1000000 2
b1000000 \"
b0 =
b0 k"
b0 ;
b0 j"
b10000000000000000100000 ]
b10000000000000000100000 6
b10000000000000000100000 b"
b10000000000010000000000000100 Q
b10000000000010000000000000100 F
b10000000000010000000000000100 T"
b1010110 \
b1010110 A
b1010110 c"
b100 (
b100 Y"
b1010110 !
b1010110 U"
b1000 J
1I
#210
0I
#220
b10101110000001000000000000001100 3
b10101110000001000000000000001100 6"
b10101110000001000000000000001100 %"
b10101110000001000000000000001100 q"
b100 %
b100 G"
1r
b1000 J"
b1000 H"
b1000 |
b1000 x
b0 0
b0 ?"
0E
b1000 }
b1000 y
b0 <
b0 ("
b0 0"
b11101111111111101111111111110111 u
b1000 ~
b1000 z
1d
b0 ?
b0 v
b1 4"
b0 -"
b0 /
b0 @"
b10000000000010000000000001000 N"
b11101111111111101111111111110111 Z
b10000000000010000000000001000 P"
b1000 !"
b1000 {
b0 I"
b10000000000000000101000 7
b10000000000000000101000 2"
b1 R"
b0 :
b0 )"
0k
0_
b0 A"
b1000 K"
b11101111111111101111111111110111 M"
b10000000000010000000000001000 ^
b10000000000010000000000001000 [
b1000000 .
b1000000 C"
b10000000000010000000000000000 H
b10000000000010000000000000000 R
b10000000000010000000000000000 -
b10000000000010000000000000000 D"
b1001 p"
b10000000000000000101000 1"
0p
08"
b1001 4
b1001 5"
b100010 ,
b100010 E"
b0 >
b0 w
b1100010 1
b1100010 7"
b100000000000110001000 /"
0m
0a
b10000000000010000000000000100 @
b10000000000010000000000000100 '"
0+"
b10000000000010000000000001000 O"
b10000000000001111111111111000 F"
b1000 G
b1000 S"
b10000000000000000000 L"
b0 "
b0 Q"
b10000000000000000101000 ."
b10000000000000110101100 3"
b10000000000000000100100 B
b10000000000000000100100 `"
b100100000001000000000001100010 C
b100100000001000000000001100010 ]"
b0 &
b0 W"
0l"
1h"
b100 '
b100 X"
1m"
0t
0i"
0n"
b1001 J
b0 (
b0 Y"
b10000000000010000000000000100 !
b10000000000010000000000000100 U"
b0 \
b0 A
b0 c"
b1000000 Q
b1000000 F
b1000000 T"
b1 ["
b11 _"
b1000 2
b1000 \"
b1010110 =
b1010110 k"
b10000000000010000000000000000 ;
b10000000000010000000000000000 j"
b10000000000000000100100 ]
b10000000000000000100100 6
b10000000000000000100100 b"
b10000000000000000100100 5
b10000000000000000100100 a"
1I
#230
0I
#240
b100100000001000000000000101100 3
b100100000001000000000000101100 6"
b100100000001000000000000101100 %"
b100100000001000000000000101100 q"
b0 %
b0 G"
0r
b11000100 K"
b11000100 J"
b110001 H"
b1000000 0
b1000000 ?"
1k
1E
b1 A"
b11000100 |
b110001 x
b1000000 <
b1000000 ("
1m
b10000000000010000000000000000 0"
b11000100 }
b110001 y
b11111111111111111111111110011101 u
0d
b100 ?
b100 v
b11 4"
b10000000000010000000000000000 -"
b10000000000010000000000000000 /
b10000000000010000000000000000 @"
b11000100 ~
b110001 z
b11111111111111111111111110011101 Z
b1100010 P"
b1 I"
b1100010 N"
b10000000000010000000000000000 :
b10000000000010000000000000000 )"
b10000000000000000101100 7
b10000000000000000101100 2"
b1100010 M"
b11000100 !"
b110001 {
b1100010 ^
b1100010 [
b0 H
b0 R
b0 -
b0 D"
1P
1p
18"
b101011 4
b101011 5"
b1100 ,
b1100 E"
b10000 >
b10000 w
b1100 1
b1100 7"
b1000000100000000000000110000 /"
b1010 p"
b10000000000000000101100 1"
b1100010 O"
b111111111111111111111111110011110 F"
b1100010 G
b1100010 S"
b11000100000000000000000 L"
b1 "
b1 Q"
b0 .
b0 C"
1+"
b1000000 @
b1000000 '"
1n"
b0 '
b0 X"
0m"
1t
1i"
b100 &
b100 W"
1l"
0h"
b10101110000001000000000000001100 C
b10101110000001000000000000001100 ]"
b10000000000000000101100 ."
b10000000000000001011000 3"
b10000000000000000101000 B
b10000000000000000101000 `"
b10000000000000000101000 5
b10000000000000000101000 a"
b0 ["
b1 _"
b1100010 2
b1100010 \"
b0 =
b0 k"
b0 ;
b0 j"
b10000000000000000101000 ]
b10000000000000000101000 6
b10000000000000000101000 b"
b10000000000010000000000001000 Q
b10000000000010000000000001000 F
b10000000000010000000000001000 T"
b1000000 \
b1000000 A
b1000000 c"
b100 (
b100 Y"
b1000000 !
b1000000 U"
b1010 J
1I
#250
0I
#260
b10101110000001000000000000010000 3
b10101110000001000000000000010000 6"
b10101110000001000000000000010000 %"
b10101110000001000000000000010000 q"
b100 %
b100 G"
1r
b1100 J"
b1100 H"
b1100 |
b1100 x
b0 0
b0 ?"
0E
b1100 }
b1100 y
b0 <
b0 ("
b0 0"
b11101111111111101111111111110011 u
b1100 ~
b1100 z
1d
b0 ?
b0 v
b1 4"
b0 -"
b0 /
b0 @"
b10000000000010000000000001100 N"
b11101111111111101111111111110011 Z
b10000000000010000000000001100 P"
b1100 !"
b1100 {
b0 I"
b10000000000000000110000 7
b10000000000000000110000 2"
b1 R"
b0 :
b0 )"
0k
0_
b0 A"
b1100 K"
b11101111111111101111111111110011 M"
b10000000000010000000000001100 ^
b10000000000010000000000001100 [
b1100010 .
b1100010 C"
b10000000000010000000000000000 H
b10000000000010000000000000000 R
b10000000000010000000000000000 -
b10000000000010000000000000000 D"
b1011 p"
b10000000000000000110000 1"
0p
08"
b1001 4
b1001 5"
b101100 ,
b101100 E"
b0 >
b0 w
b101100 1
b101100 7"
b100000000000010110000 /"
0m
0a
b10000000000010000000000001000 @
b10000000000010000000000001000 '"
0+"
b10000000000010000000000001100 O"
b10000000000001111111111110100 F"
b1100 G
b1100 S"
b11000000000000000000 L"
b0 "
b0 Q"
b10000000000000000110000 ."
b10000000000000011011100 3"
b10000000000000000101100 B
b10000000000000000101100 `"
b100100000001000000000000101100 C
b100100000001000000000000101100 ]"
b0 &
b0 W"
0l"
1h"
b100 '
b100 X"
1m"
0t
0i"
0n"
b1011 J
b0 (
b0 Y"
b10000000000010000000000001000 !
b10000000000010000000000001000 U"
b0 \
b0 A
b0 c"
b1100010 Q
b1100010 F
b1100010 T"
b1 ["
b11 _"
b1100 2
b1100 \"
b1000000 =
b1000000 k"
b10000000000010000000000000000 ;
b10000000000010000000000000000 j"
b10000000000000000101100 ]
b10000000000000000101100 6
b10000000000000000101100 b"
b10000000000000000101100 5
b10000000000000000101100 a"
1I
#270
0I
