day5/result.txt
VCD info: dumpfile mips.vcd opened for output.
  cycle |  pc      |  inst    d f ra rb rd |  alu_a    alu_b   |  alu_q    ram_din | dst  reg_din
  xxxxx | xxxxxxxx | xxxxxxxx x x  x  x  x | xxxxxxxx xxxxxxxx | 00000000 xxxxxxxx |  x  xxxxxxxx
  xxxxx | 00400000 | 00000000 0 0  0  0  0 | xxxxxxxx xxxxxxxx | 00000000 xxxxxxxx |  x  xxxxxxxx
  00000 | 00400000 | 00000000 0 0  0  0  0 | 00000000 00000000 | 00000000 xxxxxxxx |  0  xxxxxxxx
  00000 | 00400000 | 00000000 0 0  0  0  0 | 00000000 00000000 | 00000000 00000000 |  0  xxxxxxxx
  00001 | 00400004 | 3c011001 0 0  0  0  1 | 00000000 00000000 | 00000000 00000000 |  0  00000000
  00002 | 00400008 | 343d7ffc 0 1  1  0 29 | 00000000 00001001 | 00000000 00000000 |  0  00000000
  00003 | 0040000c | 24100006 0 0  0  0 16 | 10010000 00007ffc | 10010000 00000000 |  0  00000000
  00004 | 00400010 | 24110001 0 0  0  0 17 | 00000000 00000006 | 10017ffc 00000000 |  1  10010000
  00005 | 00400014 | 00102021 0 1  0 16  4 | 00000000 00000001 | 00000006 00000000 | 29  10017ffc
  00006 | 00400018 | 0c10000a 0 0  0  0 31 | 00000000 00000006 | 00000001 00000000 | 16  00000006
  00007 | 00400028 | 00112821 0 0  0 17  5 | 00000000 0000000a | 00000006 00000006 | 17  00000001
  00008 | 0040002c | 23bdfff8 0 0 29  0 29 | 00000000 00000001 | 0040001c 00000000 |  4  00000006
  00009 | 00400030 | afbf0004 0 1 29 31  0 | 10017ffc fffffff8 | 00000001 00000001 | 31  0040001c
  0000a | 00400034 | 28880001 0 0  4  0  8 | 10017ff4 00000004 | 10017ff4 00000000 |  5  00000001
  0000b | 00400038 | 11000004 1 0  8  0  0 | 00000006 00000001 | 10017ff8 0040001c | 29  10017ff4
  0000c | 00400038 | 11000004 0 1  8  0  0 | 00000000 00000000 | 00000000 00000000 |  0  10017ff8
  0000d | 00400048 | afb00000 0 0 29 16  0 | 00000000 00000004 | 00000000 00000000 |  8  00000000
  0000e | 0040004c | 70852802 0 0  4  5  5 | 10017ff4 00000000 | 00000000 00000000 |  0  00000000
  0000f | 00400050 | 0c10000a 0 0  0  0 31 | 00000006 00000001 | 10017ff4 00000006 |  0  00000000
  00010 | 00400028 | 2084ffff 0 0  4  0  4 | 00000000 0000000a | 00000006 00000001 |  0  10017ff4
  00011 | 0040002c | 23bdfff8 0 0 29  0 29 | 00000006 ffffffff | 00400054 00000000 |  5  00000006
  00012 | 00400030 | afbf0004 0 1 29 31  0 | 10017ff4 fffffff8 | 00000005 00000000 | 31  00400054
  00013 | 00400034 | 28880001 0 0  4  0  8 | 10017fec 00000004 | 10017fec 00000000 |  4  00000005
  00014 | 00400038 | 11000004 1 0  8  0  0 | 00000005 00000001 | 10017ff0 00400054 | 29  10017fec
  00015 | 00400038 | 11000004 0 1  8  0  0 | 00000000 00000000 | 00000000 00000000 |  0  10017ff0
  00016 | 00400048 | afb00000 0 0 29 16  0 | 00000000 00000004 | 00000000 00000000 |  8  00000000
  00017 | 0040004c | 70852802 0 0  4  5  5 | 10017fec 00000000 | 00000000 00000000 |  0  00000000
  00018 | 00400050 | 0c10000a 0 0  0  0 31 | 00000005 00000006 | 10017fec 00000006 |  0  00000000
  00019 | 00400028 | 2084ffff 0 0  4  0  4 | 00000000 0000000a | 0000001e 00000006 |  0  10017fec
  0001a | 0040002c | 23bdfff8 0 0 29  0 29 | 00000005 ffffffff | 00400054 00000000 |  5  0000001e
  0001b | 00400030 | afbf0004 0 1 29 31  0 | 10017fec fffffff8 | 00000004 00000000 | 31  00400054
  0001c | 00400034 | 28880001 0 0  4  0  8 | 10017fe4 00000004 | 10017fe4 00000000 |  4  00000004
  0001d | 00400038 | 11000004 1 0  8  0  0 | 00000004 00000001 | 10017fe8 00400054 | 29  10017fe4
  0001e | 00400038 | 11000004 0 1  8  0  0 | 00000000 00000000 | 00000000 00000000 |  0  10017fe8
  0001f | 00400048 | afb00000 0 0 29 16  0 | 00000000 00000004 | 00000000 00000000 |  8  00000000
  00020 | 0040004c | 70852802 0 0  4  5  5 | 10017fe4 00000000 | 00000000 00000000 |  0  00000000
  00021 | 00400050 | 0c10000a 0 0  0  0 31 | 00000004 0000001e | 10017fe4 00000006 |  0  00000000
  00022 | 00400028 | 2084ffff 0 0  4  0  4 | 00000000 0000000a | 00000078 0000001e |  0  10017fe4
  00023 | 0040002c | 23bdfff8 0 0 29  0 29 | 00000004 ffffffff | 00400054 00000000 |  5  00000078
  00024 | 00400030 | afbf0004 0 1 29 31  0 | 10017fe4 fffffff8 | 00000003 00000000 | 31  00400054
  00025 | 00400034 | 28880001 0 0  4  0  8 | 10017fdc 00000004 | 10017fdc 00000000 |  4  00000003
  00026 | 00400038 | 11000004 1 0  8  0  0 | 00000003 00000001 | 10017fe0 00400054 | 29  10017fdc
  00027 | 00400038 | 11000004 0 1  8  0  0 | 00000000 00000000 | 00000000 00000000 |  0  10017fe0
  00028 | 00400048 | afb00000 0 0 29 16  0 | 00000000 00000004 | 00000000 00000000 |  8  00000000
  00029 | 0040004c | 70852802 0 0  4  5  5 | 10017fdc 00000000 | 00000000 00000000 |  0  00000000
  0002a | 00400050 | 0c10000a 0 0  0  0 31 | 00000003 00000078 | 10017fdc 00000006 |  0  00000000
  0002b | 00400028 | 2084ffff 0 0  4  0  4 | 00000000 0000000a | 00000168 00000078 |  0  10017fdc
  0002c | 0040002c | 23bdfff8 0 0 29  0 29 | 00000003 ffffffff | 00400054 00000000 |  5  00000168
  0002d | 00400030 | afbf0004 0 1 29 31  0 | 10017fdc fffffff8 | 00000002 00000000 | 31  00400054
  0002e | 00400034 | 28880001 0 0  4  0  8 | 10017fd4 00000004 | 10017fd4 00000000 |  4  00000002
  0002f | 00400038 | 11000004 1 0  8  0  0 | 00000002 00000001 | 10017fd8 00400054 | 29  10017fd4
  00030 | 00400038 | 11000004 0 1  8  0  0 | 00000000 00000000 | 00000000 00000000 |  0  10017fd8
  00031 | 00400048 | afb00000 0 0 29 16  0 | 00000000 00000004 | 00000000 00000000 |  8  00000000
  00032 | 0040004c | 70852802 0 0  4  5  5 | 10017fd4 00000000 | 00000000 00000000 |  0  00000000
  00033 | 00400050 | 0c10000a 0 0  0  0 31 | 00000002 00000168 | 10017fd4 00000006 |  0  00000000
  00034 | 00400028 | 2084ffff 0 0  4  0  4 | 00000000 0000000a | 000002d0 00000168 |  0  10017fd4
  00035 | 0040002c | 23bdfff8 0 0 29  0 29 | 00000002 ffffffff | 00400054 00000000 |  5  000002d0
  00036 | 00400030 | afbf0004 0 1 29 31  0 | 10017fd4 fffffff8 | 00000001 00000000 | 31  00400054
  00037 | 00400034 | 28880001 0 0  4  0  8 | 10017fcc 00000004 | 10017fcc 00000000 |  4  00000001
  00038 | 00400038 | 11000004 1 0  8  0  0 | 00000001 00000001 | 10017fd0 00400054 | 29  10017fcc
  00039 | 00400038 | 11000004 0 1  8  0  0 | 00000000 00000000 | 00000000 00000000 |  0  10017fd0
  0003a | 00400048 | afb00000 0 0 29 16  0 | 00000000 00000004 | 00000000 00000000 |  8  00000000
  0003b | 0040004c | 70852802 0 0  4  5  5 | 10017fcc 00000000 | 00000000 00000000 |  0  00000000
  0003c | 00400050 | 0c10000a 0 0  0  0 31 | 00000001 000002d0 | 10017fcc 00000006 |  0  00000000
  0003d | 00400028 | 2084ffff 0 0  4  0  4 | 00000000 0000000a | 000002d0 000002d0 |  0  10017fcc
  0003e | 0040002c | 23bdfff8 0 0 29  0 29 | 00000001 ffffffff | 00400054 00000000 |  5  000002d0
  0003f | 00400030 | afbf0004 0 1 29 31  0 | 10017fcc fffffff8 | 00000000 00000000 | 31  00400054
  00040 | 00400034 | 28880001 0 0  4  0  8 | 10017fc4 00000004 | 10017fc4 00000000 |  4  00000000
  00041 | 00400038 | 11000004 1 0  8  0  0 | 00000000 00000001 | 10017fc8 00400054 | 29  10017fc4
  00042 | 00400038 | 11000004 0 1  8  0  0 | 00000000 00000000 | 00000001 00000000 |  0  10017fc8
  00043 | 0040003c | afb00000 0 0 29 16  0 | 00000001 00000004 | 00000000 00000000 |  8  00000001
  00044 | 00400040 | 00051020 0 0  0  5  2 | 10017fc4 00000000 | 00000000 00000000 |  0  00000000
  00045 | 00400044 | 03e00008 0 0 31  0  0 | 00000000 000002d0 | 10017fc4 00000006 |  0  00000000
  00046 | 00400054 | 23bd0008 0 0 29  0 29 | 00400054 00000000 | 000002d0 000002d0 |  0  10017fc4
  00047 | 00400058 | 8fbf0004 0 1 29  0 31 | 10017fc4 00000008 | 00000000 00000000 |  2  000002d0
  00048 | 0040005c | 8fb00000 0 1 29  0 16 | 10017fcc 00000004 | 10017fcc 00000000 |  0  00000000
  00049 | 00400060 | 03e00008 1 0 31  0  0 | 10017fcc 00000000 | 10017fd0 00000000 | 29  10017fcc
  0004a | 00400060 | 03e00008 0 0 31  0  0 | 00000000 00000000 | 10017fcc 00000000 | 31  00400054
  0004b | 00400054 | 23bd0008 0 0 29  0 29 | 00400054 00000000 | 00000000 00000000 | 16  00000006
  0004c | 00400058 | 8fbf0004 0 1 29  0 31 | 10017fcc 00000008 | 00000000 00000000 |  0  00000000
  0004d | 0040005c | 8fb00000 0 1 29  0 16 | 10017fd4 00000004 | 10017fd4 00000000 |  0  00000000
  0004e | 00400060 | 03e00008 1 0 31  0  0 | 10017fd4 00000000 | 10017fd8 00000000 | 29  10017fd4
  0004f | 00400060 | 03e00008 0 0 31  0  0 | 00000000 00000000 | 10017fd4 00000000 | 31  00400054
  00050 | 00400054 | 23bd0008 0 0 29  0 29 | 00400054 00000000 | 00000000 00000000 | 16  00000006
  00051 | 00400058 | 8fbf0004 0 1 29  0 31 | 10017fd4 00000008 | 00000000 00000000 |  0  00000000
  00052 | 0040005c | 8fb00000 0 1 29  0 16 | 10017fdc 00000004 | 10017fdc 00000000 |  0  00000000
  00053 | 00400060 | 03e00008 1 0 31  0  0 | 10017fdc 00000000 | 10017fe0 00000000 | 29  10017fdc
  00054 | 00400060 | 03e00008 0 0 31  0  0 | 00000000 00000000 | 10017fdc 00000000 | 31  00400054
  00055 | 00400054 | 23bd0008 0 0 29  0 29 | 00400054 00000000 | 00000000 00000000 | 16  00000006
  00056 | 00400058 | 8fbf0004 0 1 29  0 31 | 10017fdc 00000008 | 00000000 00000000 |  0  00000000
  00057 | 0040005c | 8fb00000 0 1 29  0 16 | 10017fe4 00000004 | 10017fe4 00000000 |  0  00000000
  00058 | 00400060 | 03e00008 1 0 31  0  0 | 10017fe4 00000000 | 10017fe8 00000000 | 29  10017fe4
  00059 | 00400060 | 03e00008 0 0 31  0  0 | 00000000 00000000 | 10017fe4 00000000 | 31  00400054
  0005a | 00400054 | 23bd0008 0 0 29  0 29 | 00400054 00000000 | 00000000 00000000 | 16  00000006
  0005b | 00400058 | 8fbf0004 0 1 29  0 31 | 10017fe4 00000008 | 00000000 00000000 |  0  00000000
  0005c | 0040005c | 8fb00000 0 1 29  0 16 | 10017fec 00000004 | 10017fec 00000000 |  0  00000000
  0005d | 00400060 | 03e00008 1 0 31  0  0 | 10017fec 00000000 | 10017ff0 00000000 | 29  10017fec
  0005e | 00400060 | 03e00008 0 0 31  0  0 | 00000000 00000000 | 10017fec 00000000 | 31  00400054
  0005f | 00400054 | 23bd0008 0 0 29  0 29 | 00400054 00000000 | 00000000 00000000 | 16  00000006
  00060 | 00400058 | 8fbf0004 0 1 29  0 31 | 10017fec 00000008 | 00000000 00000000 |  0  00000000
  00061 | 0040005c | 8fb00000 0 1 29  0 16 | 10017ff4 00000004 | 10017ff4 00000000 |  0  00000000
  00062 | 00400060 | 03e00008 1 0 31  0  0 | 10017ff4 00000000 | 10017ff8 00000000 | 29  10017ff4
  00063 | 00400060 | 03e00008 0 0 31  0  0 | 00000000 00000000 | 10017ff4 00000000 | 31  0040001c
  00064 | 0040001c | 23bd0008 0 0 29  0 29 | 0040001c 00000000 | 00000000 00000000 | 16  00000006
  00065 | 00400020 | 00029021 0 0  0  2 18 | 10017ff4 00000008 | 00000000 00000000 |  0  00000000
  00066 | 00400024 | 2402000a 0 0  0  0  2 | 00000000 000002d0 | 10017ffc 00000000 |  0  00000000
  00067 | 00400028 | 0000000c 0 0  0  0  0 | 00000000 0000000a | 000002d0 000002d0 | 29  10017ffc
  00068 | 0040002c | 23bdfff8 0 0 29  0 29 | 00000000 00000000 | 0000000a 00000000 | 18  000002d0
  00069 | 00400030 | afbf0004 0 1 29 31  0 | 10017ffc fffffff8 | 00000000 00000000 |  2  0000000a
  0006a | 00400034 | 28880001 0 0  4  0  8 | 10017ff4 00000004 | 10017ff4 00000000 |  0  00000000
  cycle =     106
