day5/shift_mul.vcd
$date
	Fri Jul 29 20:03:22 2022
$end
$version
	Icarus Verilog
$end
$timescale
	1ns
$end
$scope module sim $end
$scope module mips $end
$scope module rom $end
$var wire 9 ! adrs [8:0] $end
$var reg 32 " dout [31:0] $end
$upscope $end
$upscope $end
$upscope $end
$scope module sim $end
$var wire 32 # alu_q4 [31:0] $end
$var wire 5 $ amt [4:0] $end
$var wire 1 % ctrl_hzd $end
$var wire 1 & data_hzd $end
$var wire 5 ' dst [4:0] $end
$var wire 5 ( dst2 [4:0] $end
$var wire 5 ) dst3 [4:0] $end
$var wire 5 * dst4 [4:0] $end
$var wire 1 + en_dly $end
$var wire 1 , en_fwd $end
$var wire 1 - en_hzd $end
$var wire 6 . fn [5:0] $end
$var wire 32 / fwd_alu_a [31:0] $end
$var wire 32 0 fwd_alu_b [31:0] $end
$var wire 32 1 fwd_reg_a [31:0] $end
$var wire 32 2 fwd_reg_b [31:0] $end
$var wire 32 3 imm_val [31:0] $end
$var wire 32 4 imm_val2 [31:0] $end
$var wire 32 5 inst [31:0] $end
$var wire 6 6 op [5:0] $end
$var wire 32 7 pc1 [31:0] $end
$var wire 32 8 pc2 [31:0] $end
$var wire 32 9 pc_din [31:0] $end
$var wire 32 : ram_dout [31:0] $end
$var wire 32 ; ram_dout4 [31:0] $end
$var wire 32 < reg_a [31:0] $end
$var wire 32 = reg_a2 [31:0] $end
$var wire 32 > reg_b [31:0] $end
$var wire 32 ? reg_b2 [31:0] $end
$var wire 5 @ src_a [4:0] $end
$var wire 5 A src_b [4:0] $end
$var wire 32 B reg_din [31:0] $end
$var wire 32 C ram_din3 [31:0] $end
$var wire 32 D pc0 [31:0] $end
$var wire 32 E inst1 [31:0] $end
$var wire 1 F halt $end
$var wire 1 G fwd_sel $end
$var wire 32 H alu_q3 [31:0] $end
$var wire 32 I alu_b [31:0] $end
$var wire 32 J alu_a [31:0] $end
$var reg 1 K clk $end
$var reg 20 L cnt [19:0] $end
$var reg 1 M halt2 $end
$var reg 1 N halt3 $end
$var reg 1 O halt4 $end
$var reg 1 P rst $end
$var integer 32 Q i [31:0] $end
$scope module mips $end
$var wire 1 R addsub_sel $end
$var wire 32 S adrs [31:0] $end
$var wire 32 T alu_a [31:0] $end
$var wire 1 U alu_hzd $end
$var wire 1 V brn_hzd $end
$var wire 1 W brn_taken $end
$var wire 1 K clk $end
$var wire 1 X ctrl_hzd $end
$var wire 32 Y dand [31:0] $end
$var wire 1 Z data_hzd $end
$var wire 32 [ din [31:0] $end
$var wire 32 \ dnor [31:0] $end
$var wire 32 ] dor [31:0] $end
$var wire 32 ^ dout [31:0] $end
$var wire 32 _ dpc [31:0] $end
$var wire 32 ` dxor [31:0] $end
$var wire 1 + en_dly $end
$var wire 1 , en_fwd $end
$var wire 1 - en_hzd $end
$var wire 1 a ex_mem $end
$var wire 1 b ex_mem_a $end
$var wire 1 c ex_mem_b $end
$var wire 1 d fwd_id_sel_a $end
$var wire 1 e fwd_id_sel_b $end
$var wire 1 F halt $end
$var wire 1 f i_add $end
$var wire 1 g i_comp $end
$var wire 1 h i_jr $end
$var wire 1 i i_logic $end
$var wire 1 j i_mul $end
$var wire 1 k i_shift $end
$var wire 1 l i_sub $end
$var wire 1 m i_syscall $end
$var wire 1 n id_ex $end
$var wire 1 o id_ex_a $end
$var wire 1 p id_ex_b $end
$var wire 1 q ram_hzd $end
$var wire 1 r ram_rd $end
$var wire 1 s ram_wr $end
$var wire 1 t rd $end
$var wire 1 u reg_wr $end
$var wire 1 P rst $end
$var wire 1 v src_sel_b $end
$var wire 1 w wr $end
$var wire 32 x xor_nor [31:0] $end
$var wire 5 y src_b [4:0] $end
$var wire 5 z src_a [4:0] $end
$var wire 32 { sr3 [31:0] $end
$var wire 32 | sr2 [31:0] $end
$var wire 32 } sr1 [31:0] $end
$var wire 32 ~ sr0 [31:0] $end
$var wire 32 !" sl3 [31:0] $end
$var wire 32 "" sl2 [31:0] $end
$var wire 32 #" sl1 [31:0] $end
$var wire 32 $" sl0 [31:0] $end
$var wire 1 %" si $end
$var wire 1 &" sgn_b $end
$var wire 1 '" sgn_a $end
$var wire 32 (" rom_data [31:0] $end
$var wire 1 )" rom_cs $end
$var wire 32 *" reg_din [31:0] $end
$var wire 32 +" reg_b [31:0] $end
$var wire 32 ," reg_a [31:0] $end
$var wire 32 -" ram_dout [31:0] $end
$var wire 1 ." ram_cs $end
$var wire 2 /" pc_sel [1:0] $end
$var wire 32 0" pc_reg [31:0] $end
$var wire 32 1" pc_next [31:0] $end
$var wire 32 2" pc_jump [31:0] $end
$var wire 32 3" pc_din1 [31:0] $end
$var wire 32 4" pc_din0 [31:0] $end
$var wire 32 5" pc_din [31:0] $end
$var wire 32 6" pc_brn [31:0] $end
$var wire 2 7" op_sel [1:0] $end
$var wire 6 8" op [5:0] $end
$var wire 32 9" inst [31:0] $end
$var wire 32 :" imm_val [31:0] $end
$var wire 1 ;" i_sw $end
$var wire 1 <" i_rfmt $end
$var wire 1 =" i_lw $end
$var wire 1 >" i_lui $end
$var wire 1 ?" i_jal $end
$var wire 1 @" i_j $end
$var wire 1 A" i_brn $end
$var wire 32 B" fwd_reg_b [31:0] $end
$var wire 32 C" fwd_reg_a [31:0] $end
$var wire 2 D" fwd_ex_sel_b [1:0] $end
$var wire 2 E" fwd_ex_sel_a [1:0] $end
$var wire 32 F" fwd_alu_b [31:0] $end
$var wire 32 G" fwd_alu_a [31:0] $end
$var wire 6 H" fn [5:0] $end
$var wire 33 I" dsub [32:0] $end
$var wire 5 J" dst [4:0] $end
$var wire 32 K" dsr [31:0] $end
$var wire 32 L" dslt [31:0] $end
$var wire 32 M" dsl [31:0] $end
$var wire 32 N" dshift [31:0] $end
$var wire 32 O" dmul [31:0] $end
$var wire 32 P" dlui [31:0] $end
$var wire 32 Q" dlogic [31:0] $end
$var wire 32 R" daddsub [31:0] $end
$var wire 33 S" dadd [32:0] $end
$var wire 32 T" and_or [31:0] $end
$var wire 5 U" amt [4:0] $end
$var wire 3 V" alu_sel [2:0] $end
$var wire 32 W" alu_b [31:0] $end
$var reg 32 X" alu_q3 [31:0] $end
$var reg 32 Y" alu_q4 [31:0] $end
$var reg 3 Z" alu_sel2 [2:0] $end
$var reg 5 [" dst2 [4:0] $end
$var reg 5 \" dst3 [4:0] $end
$var reg 5 ]" dst4 [4:0] $end
$var reg 2 ^" fwd_ex_sel_a2 [1:0] $end
$var reg 2 _" fwd_ex_sel_b2 [1:0] $end
$var reg 32 `" imm_val2 [31:0] $end
$var reg 32 a" inst1 [31:0] $end
$var reg 1 b" nop1 $end
$var reg 2 c" op_sel2 [1:0] $end
$var reg 32 d" pc0 [31:0] $end
$var reg 32 e" pc1 [31:0] $end
$var reg 32 f" pc2 [31:0] $end
$var reg 32 g" ram_din3 [31:0] $end
$var reg 32 h" ram_dout4 [31:0] $end
$var reg 1 i" ram_rd2 $end
$var reg 1 j" ram_rd3 $end
$var reg 1 k" ram_rd4 $end
$var reg 1 l" ram_wr2 $end
$var reg 1 m" ram_wr3 $end
$var reg 32 n" reg_a2 [31:0] $end
$var reg 32 o" reg_b2 [31:0] $end
$var reg 1 p" reg_wr2 $end
$var reg 1 q" reg_wr3 $end
$var reg 1 r" reg_wr4 $end
$var reg 1 s" src_sel_b2 $end
$scope module rom $end
$upscope $end
$upscope $end
$upscope $end
$scope module top $end
$scope module mips $end
$scope module rom $end
$var wire 9 t" adrs [8:0] $end
$var reg 32 u" dout [31:0] $end
$upscope $end
$upscope $end
$upscope $end
$enddefinitions $end
#0
$dumpvars
bx u"
bx t"
xs"
xr"
xq"
xp"
bx o"
bx n"
xm"
xl"
xk"
xj"
xi"
bx h"
bx g"
bx f"
bx e"
bx d"
bx c"
0b"
bx a"
bx `"
bx _"
bx ^"
bx ]"
bx \"
bx ["
bx Z"
bx Y"
b0 X"
bx W"
bx V"
bx U"
bx T"
bx S"
bx R"
bx Q"
bx0000000000000000 P"
bx O"
bx N"
bx M"
b0x L"
bx K"
bx J"
bx I"
bx H"
bx G"
bx F"
bx E"
bx D"
bx C"
bx B"
xA"
x@"
x?"
x>"
x="
x<"
x;"
bx :"
bx 9"
bx 8"
bx 7"
bx 6"
bx 5"
bx 4"
bx 3"
bx00 2"
bx 1"
bx 0"
bx /"
0."
bx -"
bx ,"
bx +"
bx *"
x)"
bx ("
x'"
x&"
x%"
bx $"
bx #"
bx ""
bx !"
bx ~
bx }
bx |
bx {
bx z
bx y
bx x
xw
xv
xu
xt
xs
xr
xq
xp
xo
xn
xm
xl
xk
xj
xi
xh
xg
xf
xe
xd
xc
xb
xa
bx `
bx _
bx ^
bx ]
bx \
b0 [
xZ
bx Y
0X
xW
xV
0U
bx T
b0 S
xR
bx Q
1P
xO
xN
xM
bx L
1K
bx J
bx I
b0 H
xG
xF
bx E
bx D
bx C
bx B
bx A
bx @
bx ?
bx >
bx =
bx <
bx ;
bx :
bx 9
bx 8
bx 7
bx 6
bx 5
bx 4
bx 3
bx 2
bx 1
bx 0
bx /
bx .
1-
1,
1+
bx *
bx )
bx (
bx '
x&
0%
bx $
bx #
bx "
bx !
$end
#10
0K
#13
b111100000000010001000000000001 5
b111100000000010001000000000001 9"
b111100000000010001000000000001 "
b111100000000010001000000000001 ("
1u
0&
0Z
b101 V"
b10000000000000000000100 9
b10000000000000000000100 5"
b0 /"
1k
0V
b0 3"
0q
b0 2
b0 B"
0G
0e
b0 D"
0i
0W
0f
0g
b0 0"
b0 1
b0 C"
0n
0a
0d
b0 E"
b0 >
b0 +"
0c
0p
b0 7"
1v
0l
b0 '
b0 J"
0A"
0j
0h
0F
0m
b0 <
b0 ,"
0o
0b
b0 A
b0 y
b10000000000000000000000 6"
1<"
0@"
0?"
0>"
0r
0="
0s
0;"
b0 6
b0 8"
b0 .
b0 H"
b0 @
b0 z
b0 3
b0 :"
1)"
b0 !
b10000000000000000000100 4"
b0 2"
0r"
b0 )
b0 \"
0q"
0w
0m"
b0 (
b0 ["
0p"
0l"
1b"
b0 E
b0 a"
b10000000000000000000100 1"
b10000000000000000000000 D
b10000000000000000000000 d"
0P
#20
b0 N"
b0 M"
b0 K"
b0 !"
b0 {
b0 R"
b0 ""
b0 |
b0 L"
b0 O"
b0 #"
b0 }
b0 S"
b0 I"
0&"
b0 x
b11111111111111111111111111111111 \
b0 Q"
b0 $"
b0 ~
b0 `
b0 ]
b0 T"
0'"
1R
b0 I
b0 W"
b0 Y
b0 0
b0 F"
b0 J
b0 T
b0 /
b0 G"
0%"
b0 P"
b0 $
b0 U"
0O
0N
0M
b0 L
b0 *
b0 ]"
b0 #
b0 Y"
b0 _"
b0 ^"
1s"
0i"
b0 c"
b101 Z"
b0 4
b0 `"
b0 ?
b0 o"
b0 =
b0 n"
b10000000000000000000100 7
b10000000000000000000100 e"
1K
#30
0K
#40
b10000000000000000001000 _
b10000000000000000001000 8
b10000000000000000001000 f"
0t
0j"
b0 ^
b0 C
b0 g"
1K
#50
0K
#53
1P
#60
b110100001100000000000000000000 5
b110100001100000000000000000000 9"
b110100001100000000000000000000 "
b110100001100000000000000000000 ("
b11 V"
b0 2
b0 B"
b0 >
b0 +"
b1 '
b1 J"
b10000000000000000001000 9
b10000000000000000001000 5"
b11 7"
0v
0k
b0 A
b0 y
b1 !
b10000000000000000001000 4"
0<"
1>"
b1111 6
b1111 8"
b1 .
b1 H"
b1000000000001 3
b1000000000001 :"
b1000100000000000100 2"
b0 B
b0 *"
b10000000000000000001000 1"
b10000000100000000001000 6"
b10000000000000000000100 D
b10000000000000000000100 d"
b111100000000010001000000000001 E
b111100000000010001000000000001 a"
0b"
b1 L
0k"
1K
#70
0K
#80
b100100000000100000000000000001 5
b100100000000100000000000000001 9"
b100100000000100000000000000001 "
b100100000000100000000000000001 ("
b1000000000001 N"
1u
b1000000000001 M"
b1000000000001 K"
b1000000000001 !"
b1000000000001 {
1i
b100 V"
bx 3"
b10000 '
b10000 J"
b1000000000001 ""
b1000000000001 |
0R
b1 7"
bx 0"
bx 1
bx C"
b1000000000001 #"
b1000000000001 }
b11111111111111111110111111111111 R"
b11111111111111111110111111111110 \
b1000000000001 T"
b11111111111111111110111111111110 Q"
1n
1G
b1 E"
bx <
bx ,"
b10000000000000000001100 9
b10000000000000000001100 5"
b1000000000001 $"
b1000000000001 ~
b1 L"
b1000000000001 `
b1000000000001 ]
b11111111111111111110111111111110 x
1o
0>"
b1101 6
b1101 8"
b0 .
b0 H"
b1 @
b1 z
b0 3
b0 :"
b110000000000000000000000 2"
b10 !
b10000000000000000001100 4"
b1000000000001 S"
b111111111111111111110111111111111 I"
b1000000000001 I
b1000000000001 W"
b10000000000010000000000000000 P"
b1 (
b1 ["
1p"
b110100001100000000000000000000 E
b110100001100000000000000000000 a"
b10000000000000000001100 1"
b10000000000000000001000 6"
b10000000000000000001000 D
b10000000000000000001000 d"
b10000000000000000001000 7
b10000000000000000001000 e"
0s"
b11 c"
b11 Z"
b1000000000001 4
b1000000000001 `"
b10 L
1K
#90
0K
#100
b100100000001000000000000001101 5
b100100000001000000000000001101 9"
b100100000001000000000000001101 "
b100100000001000000000000001101 ("
1u
b0 N"
b1 V"
b0 M"
b0 K"
b0 !"
b0 {
0i
b0 3"
b10 '
b10 J"
1R
b0 ""
b0 |
b11101111111111101111111111111111 x
1f
b0 0"
b0 1
b0 C"
0G
b0 #"
b0 }
b10000000000010000000000000000 R"
b11101111111111101111111111111111 \
b10000000000010000000000000000 T"
b10000000000000000010000 9
b10000000000000000010000 5"
b0 <
b0 ,"
0n
0a
b0 E"
b10000000000010000000000000000 Q"
b0 $"
b0 ~
b0 L"
b10000000000010000000000000000 `
b10000000000010000000000000000 ]
b10000000000010000000000000000 J
b10000000000010000000000000000 T
b10000000000010000000000000000 /
b10000000000010000000000000000 G"
b11 !
b10000000000000000010000 4"
b1001 6
b1001 8"
b1 .
b1 H"
b0 @
b0 z
b1 3
b1 :"
b10000000000000000100 2"
0o
0b
1."
b10000000000010000000000000000 S"
b10000000000010000000000000000 I"
b0 I
b0 W"
b0 P"
b10000000000000000010000 1"
b10000000000000000010000 6"
b10000000000000000001100 D
b10000000000000000001100 d"
b100100000000100000000000000001 E
b100100000000100000000000000001 a"
b10000 (
b10000 ["
b1 )
b1 \"
1q"
b11 L
b10000000000010000000000000000 S
b10000000000010000000000000000 H
b10000000000010000000000000000 X"
b1 ^"
b1 c"
b100 Z"
b0 4
b0 `"
bx =
bx n"
b10000000000000000001100 _
b10000000000000000001100 8
b10000000000000000001100 f"
b10000000000000000001100 7
b10000000000000000001100 e"
1K
#110
0K
#120
b10101110000001000000000000000000 5
b10101110000001000000000000000000 9"
b10101110000001000000000000000000 "
b10101110000001000000000000000000 ("
b1 N"
b1 M"
b1 K"
b1 !"
b1 {
b100 '
b100 J"
b1 ""
b1 |
b11111111111111111111111111111110 x
b1 Q"
b1 L"
b1 #"
b1 }
b1 R"
b11111111111111111111111111111110 \
b1 T"
b10000000000000000010100 9
b10000000000000000010100 5"
b0 J
b0 T
b0 /
b0 G"
b1 $"
b1 ~
b0 O"
b1 `
b1 ]
b1101 .
b1101 H"
b1101 3
b1101 :"
b100000000000000110100 2"
b100 !
b10000000000000000010100 4"
b1 S"
b111111111111111111111111111111111 I"
b1 I
b1 W"
b10000000000000000 P"
b10000000000010000000000000000 B
b10000000000010000000000000000 *"
1r"
b10000 )
b10000 \"
b10 (
b10 ["
b100100000001000000000000001101 E
b100100000001000000000000001101 a"
b10000000000000000010100 1"
b10000000000000001000100 6"
b10000000000000000010000 D
b10000000000000000010000 d"
b10000000000000000010000 7
b10000000000000000010000 e"
b0 ^"
b1 Z"
b1 4
b1 `"
b0 =
b0 n"
b10000000000000000010000 _
b10000000000000000010000 8
b10000000000000000010000 f"
b1 *
b1 ]"
b10000000000010000000000000000 #
b10000000000010000000000000000 Y"
b100 L
1K
#130
0K
#140
b100100000001000000000000001011 5
b100100000001000000000000001011 9"
b100100000001000000000000001011 "
b100100000001000000000000001011 ("
b0 '
b0 J"
0u
b1101 N"
bx 2
bx B"
1n
1G
b1 D"
b1101 M"
b1101 K"
bx >
bx +"
1p
b1101 !"
b1101 {
b100 A
b100 y
b10000000000010000000000000000 3"
b1101 ""
b1101 |
b11111111111111111111111111110010 x
b1101 Q"
0f
b11 7"
b10000000000010000000000000000 0"
b10000000000010000000000000000 1
b10000000000010000000000000000 C"
b1101 #"
b1101 }
b1101 R"
b11111111111111111111111111110010 \
b1101 T"
b10000000000000000011000 9
b10000000000000000011000 5"
b10000000000010000000000000000 <
b10000000000010000000000000000 ,"
b1101 $"
b1101 ~
b1101 `
b1101 ]
b101 !
b10000000000000000011000 4"
1s
1;"
b101011 6
b101011 8"
b0 .
b0 H"
b10000 @
b10000 z
b0 3
b0 :"
b1000000100000000000000000000 2"
0."
b1101 S"
b111111111111111111111111111110011 I"
b1101 I
b1101 W"
b11010000000000000000 P"
b10000000000000000011000 1"
b10000000000000000010100 6"
b10000000000000000010100 D
b10000000000000000010100 d"
b10101110000001000000000000000000 E
b10101110000001000000000000000000 a"
b100 (
b100 ["
b10 )
b10 \"
b101 L
b10000 *
b10000 ]"
b1 S
b1 H
b1 X"
b1101 4
b1101 `"
b10000000000000000010100 _
b10000000000000000010100 8
b10000000000000000010100 f"
b10000000000000000010100 7
b10000000000000000010100 e"
1K
#150
0K
#160
b10101110000001000000000000000100 5
b10101110000001000000000000000100 9"
b10101110000001000000000000000100 "
b10101110000001000000000000000100 ("
b100 '
b100 J"
1u
b0 N"
b0 2
b0 B"
b0 M"
b0 K"
b0 >
b0 +"
b0 !"
b0 {
b0 A
b0 y
b0 3"
b0 ""
b0 |
b11101111111111101111111111111111 x
1f
b1 V"
b1 7"
b0 0"
b0 1
b0 C"
b0 #"
b0 }
b10000000000010000000000000000 R"
b11101111111111101111111111111111 \
b10000000000010000000000000000 T"
0a
0n
0G
b0 D"
b0 <
b0 ,"
b10000000000000000011100 9
b10000000000000000011100 5"
b11101111111111101111111111111111 Q"
b0 $"
b0 ~
b0 L"
b10000000000010000000000000000 `
b10000000000010000000000000000 ]
b1101 0
b1101 F"
b10000000000010000000000000000 J
b10000000000010000000000000000 T
b10000000000010000000000000000 /
b10000000000010000000000000000 G"
0c
0p
0s
0;"
b1001 6
b1001 8"
b1011 .
b1011 H"
b0 @
b0 z
b1011 3
b1011 :"
b100000000000000101100 2"
b110 !
b10000000000000000011100 4"
b10000000000010000000000000000 S"
b10000000000010000000000000000 I"
b0 I
b0 W"
b0 P"
b1 B
b1 *"
b100 )
b100 \"
b0 (
b0 ["
0p"
1l"
b100100000001000000000000001011 E
b100100000001000000000000001011 a"
b10000000000000000011100 1"
b10000000000000001000100 6"
b10000000000000000011000 D
b10000000000000000011000 d"
b10000000000000000011000 7
b10000000000000000011000 e"
b1 _"
b11 c"
b0 4
b0 `"
bx ?
bx o"
b10000000000010000000000000000 =
b10000000000010000000000000000 n"
b10000000000000000011000 _
b10000000000000000011000 8
b10000000000000000011000 f"
b1101 S
b1101 H
b1101 X"
b10 *
b10 ]"
b1 #
b1 Y"
b110 L
1K
#170
0K
#180
b100100000000100000000000000001 5
b100100000000100000000000000001 9"
b100100000000100000000000000001 "
b100100000000100000000000000001 ("
b0 '
b0 J"
0u
b1011 N"
b1101 2
b1101 B"
1n
1G
b1 D"
b1011 M"
b1011 K"
b1101 >
b1101 +"
1p
b1011 !"
b1011 {
b100 A
b100 y
b10000000000010000000000000000 3"
b1011 ""
b1011 |
b11111111111111111111111111110100 x
0f
b11 7"
b10000000000010000000000000000 0"
b10000000000010000000000000000 1
b10000000000010000000000000000 C"
b1011 #"
b1011 }
b11111111111111111111111111110100 \
b1011 T"
b1 L"
b10000000000000000100000 9
b10000000000000000100000 5"
b10000000000010000000000000000 <
b10000000000010000000000000000 ,"
b1011 R"
b1011 Q"
b1011 $"
b1011 ~
b1011 `
b1011 ]
b0 J
b0 T
b0 /
b0 G"
b111 !
b10000000000000000100000 4"
1s
1;"
b101011 6
b101011 8"
b100 .
b100 H"
b10000 @
b10000 z
b100 3
b100 :"
b1000000100000000000000010000 2"
1R
b1101 B
b1101 *"
b0 0
b0 F"
1."
b1011 S"
b111111111111111111111111111110101 I"
b1011 I
b1011 W"
b10110000000000000000 P"
b10000000000000000100000 1"
b10000000000000000101100 6"
b10000000000000000011100 D
b10000000000000000011100 d"
b10101110000001000000000000000100 E
b10101110000001000000000000000100 a"
b100 (
b100 ["
1p"
0l"
b0 )
b0 \"
0q"
1w
1m"
b111 L
b100 *
b100 ]"
b1101 #
b1101 Y"
b1101 ^
b1101 C
b1101 g"
b10000000000010000000000000000 S
b10000000000010000000000000000 H
b10000000000010000000000000000 X"
b0 _"
b1 c"
b1011 4
b1011 `"
b0 ?
b0 o"
b0 =
b0 n"
b10000000000000000011100 _
b10000000000000000011100 8
b10000000000000000011100 f"
b10000000000000000011100 7
b10000000000000000011100 e"
1K
#190
0K
#200
b1100 5
b1100 9"
b1100 "
b1100 ("
b10 '
b10 J"
1u
b100 N"
b100 M"
b100 K"
b0 2
b0 B"
b100 !"
b100 {
b0 3"
b0 >
b0 +"
b100 ""
b100 |
b11101111111111101111111111111011 x
1f
b1 V"
b1 7"
b0 0"
b0 1
b0 C"
b100 #"
b100 }
b10000000000010000000000000100 R"
b11101111111111101111111111111011 \
b10000000000010000000000000100 T"
b0 L"
b1000000000001000000000000000000 O"
0a
0n
0G
b0 D"
b0 <
b0 ,"
b0 A
b0 y
b10000000000000000100100 9
b10000000000000000100100 5"
b11101111111111101111111111111011 Q"
b100 $"
b100 ~
b10000000000010000000000000100 `
b10000000000010000000000000100 ]
b1011 0
b1011 F"
b10000000000010000000000000000 J
b10000000000010000000000000000 T
b10000000000010000000000000000 /
b10000000000010000000000000000 G"
0c
0p
0s
0;"
b1001 6
b1001 8"
b1 .
b1 H"
b0 @
b0 z
b1 3
b1 :"
b10000000000000000100 2"
b1000 !
b10000000000000000100100 4"
b10000000000010000000000000100 S"
b10000000000001111111111111100 I"
b100 I
b100 W"
b1000000000000000000 P"
0."
b10000000000010000000000000000 B
b10000000000010000000000000000 *"
0r"
b100 )
b100 \"
1q"
0w
0m"
b0 (
b0 ["
0p"
1l"
b100100000000100000000000000001 E
b100100000000100000000000000001 a"
b10000000000000000100100 1"
b10000000000000000100100 6"
b10000000000000000100000 D
b10000000000000000100000 d"
b10000000000000000100000 7
b10000000000000000100000 e"
b1 _"
b11 c"
b100 4
b100 `"
b1101 ?
b1101 o"
b10000000000010000000000000000 =
b10000000000010000000000000000 n"
b10000000000000000100000 _
b10000000000000000100000 8
b10000000000000000100000 f"
b1011 S
b1011 H
b1011 X"
b0 ^
b0 C
b0 g"
b0 *
b0 ]"
b10000000000010000000000000000 #
b10000000000010000000000000000 Y"
b1000 L
1K
#210
0K
#220
b100001000100000100000 5
b100001000100000100000 9"
b100001000100000100000 "
b100001000100000100000 ("
0u
b0 V"
b1 N"
b1 M"
b1 K"
b1 !"
b1 {
b0 '
b0 J"
b1 ""
b1 |
b11111111111111111111111111111110 x
0f
b1 #"
b1 }
b11111111111111111111111111111110 \
b1 T"
b1 L"
b10000000000000000101000 9
b10000000000000000101000 5"
b0 7"
1v
1F
1m
b1 R"
b1 Q"
b1 $"
b1 ~
b0 O"
b1 `
b1 ]
b0 J
b0 T
b0 /
b0 G"
b1001 !
b10000000000000000101000 4"
1<"
b0 6
b0 8"
b1100 .
b1100 H"
b1100 3
b1100 :"
b110000 2"
1R
b1011 B
b1011 *"
b0 0
b0 F"
1."
b1 S"
b111111111111111111111111111111111 I"
b1 I
b1 W"
b10000000000000000 P"
b10000000000000000101000 1"
b10000000000000001010100 6"
b10000000000000000100100 D
b10000000000000000100100 d"
b1100 E
b1100 a"
b10 (
b10 ["
1p"
0l"
b0 )
b0 \"
0q"
1w
1m"
1r"
b1001 L
b100 *
b100 ]"
b1011 #
b1011 Y"
b1011 ^
b1011 C
b1011 g"
b10000000000010000000000000100 S
b10000000000010000000000000100 H
b10000000000010000000000000100 X"
b0 _"
b1 c"
b1 4
b1 `"
b0 ?
b0 o"
b0 =
b0 n"
b10000000000000000100100 _
b10000000000000000100100 8
b10000000000000000100100 f"
b10000000000000000100100 7
b10000000000000000100100 e"
1K
#230
0K
#240
b10001110001010000000000000000000 5
b10001110001010000000000000000000 9"
b10001110001010000000000000000000 "
b10001110001010000000000000000000 ("
1u
b1 V"
b0 N"
b0 M"
b0 K"
b0 !"
b0 {
1f
b10000000000010000000000000000 2
b10000000000010000000000000000 B"
b0 ""
b0 |
b10000000000010000000000000000 >
b10000000000010000000000000000 +"
b10001 '
b10001 J"
b0 Q"
b0 #"
b0 }
b0 R"
b11111111111111111111111111111111 \
0F
0m
b10000 A
b10000 y
b10000000000000000101100 9
b10000000000000000101100 5"
b0 T"
b0 x
b0 $"
b0 ~
b0 L"
b0 `
b0 ]
b100000 .
b100000 H"
b11111111111111111000100000100000 3
b11111111111111111000100000100000 :"
b10000100010000010000000 2"
b1010 !
b10000000000000000101100 4"
b0 S"
b0 I"
b0 I
b0 W"
b11000000000000000000 P"
0."
b10000000000010000000000000100 B
b10000000000010000000000000100 *"
0r"
b10 )
b10 \"
1q"
0w
0m"
b0 (
b0 ["
0p"
b100001000100000100000 E
b100001000100000100000 a"
b10000000000000000101100 1"
b1111100010000010101000 6"
b10000000000000000101000 D
b10000000000000000101000 d"
b10000000000000000101000 7
b10000000000000000101000 e"
1s"
b0 c"
b0 Z"
b1100 4
b1100 `"
b10000000000000000101000 _
b10000000000000000101000 8
b10000000000000000101000 f"
b1 S
b1 H
b1 X"
b0 ^
b0 C
b0 g"
b0 *
b0 ]"
b10000000000010000000000000100 #
b10000000000010000000000000100 Y"
b1010 L
1M
1K
#250
0K
#260
b10001110001010010000000000000100 5
b10001110001010010000000000000100 9"
b10001110001010010000000000000100 "
b10001110001010010000000000000100 ("
b10000000000010000000000000000 N"
b10000000000010000000000000000 M"
b10000000000010000000000000000 K"
b10000000000010000000000000000 !"
b10000000000010000000000000000 {
b10000000000010000000000000000 ""
b10000000000010000000000000000 |
b0 2
b0 B"
b10000000000010000000000000000 #"
b10000000000010000000000000000 }
b10000000000010000000000000000 R"
b10000000000010000000000000000 x
b11101111111111101111111111111111 \
bx 3"
b0 >
b0 +"
b10000000000010000000000000000 $"
b10000000000010000000000000000 ~
b1 L"
b10000000000010000000000000000 `
b10000000000010000000000000000 ]
0f
bx 0"
bx 1
bx C"
1n
1G
b1 E"
b1000 '
b1000 J"
b10000000000010000000000000000 S"
b111101111111111110000000000000000 I"
b10000000000010000000000000000 I
b10000000000010000000000000000 W"
b10000000000000000110000 9
b10000000000000000110000 5"
b11 7"
0v
bx <
bx ,"
1o
b0 A
b0 y
b10000000000010000000000000000 0
b10000000000010000000000000000 F"
b1011 !
b10000000000000000110000 4"
0<"
1r
1="
b100011 6
b100011 8"
b0 .
b0 H"
b10001 @
b10001 z
b0 3
b0 :"
b1000101000000000000000000000 2"
b1 B
b1 *"
b10001000001000000000000000000000 P"
b10000000000000000110000 1"
b10000000000000000101100 6"
b10000000000000000101100 D
b10000000000000000101100 d"
b10001110001010000000000000000000 E
b10001110001010000000000000000000 a"
b10001 (
b10001 ["
1p"
b0 )
b0 \"
0q"
1r"
1N
0M
b1011 L
b10 *
b10 ]"
b1 #
b1 Y"
b0 S
b0 H
b0 X"
b1 Z"
b11111111111111111000100000100000 4
b11111111111111111000100000100000 `"
b10000000000010000000000000000 ?
b10000000000010000000000000000 o"
b10000000000000000101100 _
b10000000000000000101100 8
b10000000000000000101100 f"
b10000000000000000101100 7
b10000000000000000101100 e"
1K
#270
0K
#280
b100000000010100000000000000000 5
b100000000010100000000000000000 9"
b100000000010100000000000000000 "
b100000000010100000000000000000 ("
b0 N"
b0 M"
b0 K"
b0 !"
b0 {
b1001 '
b1001 J"
b0 ""
b0 |
0&
0Z
b0 #"
b0 }
1a
0n
1G
b10 E"
b10000000000000000110100 9
b10000000000000000110100 5"
b0 $"
b0 ~
b0 L"
b10000000000010000000000000000 T"
b11101111111111101111111111111111 x
b11101111111111101111111111111111 Q"
b0 0
b0 F"
b10000000000010000000000000000 J
b10000000000010000000000000000 T
b10000000000010000000000000000 /
b10000000000010000000000000000 G"
1b
0o
b100 .
b100 H"
b100 3
b100 :"
b1000101001000000000000010000 2"
b1100 !
b10000000000000000110100 4"
b10000000000010000000000000000 S"
b10000000000010000000000000000 I"
b0 I
b0 W"
0q
b0 P"
1."
b0 B
b0 *"
0r"
b10001 )
b10001 \"
1q"
b1000 (
b1000 ["
b10001110001010010000000000000100 E
b10001110001010010000000000000100 a"
b10000000000000000110100 1"
b10000000000000001000000 6"
b10000000000000000110000 D
b10000000000000000110000 d"
b10000000000000000110000 7
b10000000000000000110000 e"
b1 ^"
0s"
1i"
b11 c"
b0 4
b0 `"
b0 ?
b0 o"
bx =
bx n"
b10000000000000000110000 _
b10000000000000000110000 8
b10000000000000000110000 f"
b10000000000010000000000000000 S
b10000000000010000000000000000 H
b10000000000010000000000000000 X"
b10000000000010000000000000000 ^
b10000000000010000000000000000 C
b10000000000010000000000000000 g"
b0 *
b0 ]"
b0 #
b0 Y"
b1100 L
1O
0N
1K
#290
0K
